"id","OutcomeID","Material","ManufacturingMethod","Volume","Mass","MaxVonMisesStress","cluster"
"1",446,"Inconel 718","Unrestricted",13.39,3.912,63977,1
"2",483,"Inconel 718","Unrestricted",9.93,2.9,63978.5,1
"3",858,"Inconel 718","Unrestricted",12.45,3.637,54616.6,1
"4",93,"Aluminum AlSi10Mg","Unrestricted",25.49,2.459,34805.6,1
"5",366,"Cobalt Chrome","Unrestricted",10.71,3.207,56645.9,1
"6",1,"Inconel 718","Unrestricted",12.16,3.552,55973.5,1
"7",410,"Titanium 6Al-4V","Unrestricted",16.65,2.665,51186.7,1
"8",49,"Inconel 718","Unrestricted",9.31,2.72,74629,1
"9",64,"Inconel 718 Plus","Unrestricted",10.78,3.33,64192.2,1
"10",995,"Stainless Steel 17-4 PH","Unrestricted",11.74,3.307,69611.3,1
"11",623,"Inconel 718","3 Axis Milling",14.61,4.267,60522.4,1
"12",546,"Inconel 625","Unrestricted",12.82,3.909,53121.2,1
"13",81,"Inconel 718","Unrestricted",6.47,1.889,111962.6,1
"14",540,"Inconel 718","5 Axis Milling",10.94,3.196,63970.9,1
"15",70,"Stainless Steel 17-4 PH","Unrestricted",11.81,3.327,58014.1,1
"16",360,"Inconel 718","Die Casting",7.74,2.26,74644.7,1
"17",180,"Stainless Steel AISI 304","Unrestricted",32.46,9.381,31182.8,1
"18",541,"Inconel 718","3 Axis Milling",14.15,4.132,63981.8,1
"19",621,"Inconel 718","2.5 Axis Milling",13.43,3.923,60523.7,1
"20",544,"Inconel 718","3 Axis Milling",14.15,4.132,63981.8,1
"21",207,"Stainless Steel, 440C","Unrestricted",11.95,3.347,49965.3,1
"22",618,"Inconel 718","2 Axis Cutting",17.55,5.128,60521.8,1
"23",77,"Stainless Steel AISI 304","Unrestricted",35.23,10.182,31182.5,1
"24",622,"Inconel 718","2.5 Axis Milling",17.13,5.004,60522.5,1
"25",450,"Inconel 718","2 Axis Cutting",15.52,4.533,63978.5,1
"26",492,"Inconel 718","Die Casting",9.87,2.883,63974.4,1
"27",400,"Inconel 718 Plus","Unrestricted",6.83,2.11,96302.3,1
"28",191,"Cobalt Chrome","Unrestricted",7.77,2.326,84989.4,1
"29",187,"Inconel 625","Unrestricted",6.82,2.079,92964.4,1
"30",539,"Inconel 718","2 Axis Cutting",17.07,4.987,63968.9,1
"31",266,"Iron, Ductile","Die Casting",11.23,2.902,58809.8,1
"32",490,"Inconel 718","2 Axis Cutting",13.35,3.899,63982.2,1
"33",335,"Iron, Ductile","Unrestricted",18.82,4.861,39207.7,1
"34",988,"Cobalt Chrome","Unrestricted",12.53,3.753,67990.5,1
"35",85,"Inconel 625","Unrestricted",7.4,2.256,92961.5,1
"36",984,"Inconel 625","Unrestricted",10.91,3.325,74374.2,1
"37",220,"Iron, Ductile","Unrestricted",10.83,2.796,58812.8,1
"38",260,"Iron, Ductile","Unrestricted",11.62,3.003,58808.6,1
"39",307,"Iron, Ductile","Unrestricted",11.4,2.945,58810.3,1
"40",203,"Stainless Steel 17-4 PH","Unrestricted",7.62,2.148,87020.5,1
"41",543,"Inconel 718","2.5 Axis Milling",15.76,4.604,63981.2,1
"42",328,"Titanium 6Al-4V","Unrestricted",14.25,2.28,42660.7,1
"43",611,"Inconel 718","Unrestricted",11.31,3.305,60523.7,1
"44",267,"Inconel 718","Unrestricted",20.82,6.083,55976.2,1
"45",52,"Inconel 718","3 Axis Milling",12.64,3.692,74639.7,1
"46",386,"Inconel 718","Unrestricted",6.09,1.778,111961.4,1
"47",935,"Inconel 718","Unrestricted",13.54,3.955,49760.7,1
"48",297,"Stainless Steel, 440C","Unrestricted",13.49,3.776,49961.4,1
"49",143,"Inconel 718","Unrestricted",11.28,3.294,55983.8,1
"50",620,"Inconel 718","3 Axis Milling",14.61,4.267,60522.4,1
"51",773,"Inconel 718","Unrestricted",11.89,3.474,57409.6,1
"52",619,"Inconel 718","5 Axis Milling",11.5,3.361,60523.3,1
"53",325,"Iron, Ductile","Additive",13.75,3.552,58812,2
"54",777,"Inconel 718","Additive",11.64,3.4,57419.5,2
"55",784,"Inconel 718","3 Axis Milling",15.23,4.449,57410.6,2
"56",864,"Inconel 718","Additive",12.18,3.558,54617.4,2
"57",185,"Inconel 718","Additive",5.88,1.718,111968.9,2
"58",228,"Inconel 718","Additive",10.95,3.199,55978.9,2
"59",357,"Inconel 718","Additive",8.42,2.458,74635.6,2
"60",263,"Iron, Ductile","Additive",11.42,2.95,58808.3,2
"61",489,"Inconel 718","Additive",9.86,2.881,63969.1,2
"62",860,"Inconel 718","Additive",12.1,3.535,54616.4,2
"63",973,"Iron, Cast","Additive",11.94,3.084,54965.5,2
"64",866,"Inconel 718","5 Axis Milling",12.71,3.712,54613.2,2
"65",975,"Iron, Cast","Additive",13.38,3.457,54966.5,2
"66",358,"Inconel 718","Additive",8.57,2.504,74634.9,2
"67",944,"Inconel 718","3 Axis Milling",16.96,4.954,49762.3,2
"68",389,"Inconel 718","Additive",6.32,1.847,111964.9,2
"69",941,"Inconel 718","Additive",13.46,3.931,49755.1,2
"70",870,"Inconel 718","Die Casting",12.3,3.594,54614.1,2
"71",948,"Inconel 718","Die Casting",14.11,4.122,49762.4,2
"72",230,"Inconel 718","Additive",11.9,3.477,55983.6,2
"73",868,"Inconel 718","2.5 Axis Milling",14.84,4.336,54610.7,2
"74",614,"Inconel 718","Additive",11.36,3.32,60523.3,2
"75",221,"Iron, Ductile","Additive",10.58,2.733,58809.8,2
"76",776,"Inconel 718","Additive",13.1,3.826,57415.9,2
"77",323,"Iron, Ductile","Additive",14.44,3.731,58797.2,2
"78",343,"Inconel 718","Additive",18.29,5.343,37322.7,2
"79",145,"Inconel 718","Additive",11.18,3.266,55973.5,2
"80",449,"Inconel 718","Additive",13.1,3.826,63981,2
"81",419,"Inconel 718","Additive",18.83,5.5,44760.5,2
"82",4,"Inconel 718","Additive",13.07,3.817,55980.3,2
"83",84,"Inconel 718","Additive",6.48,1.892,111958.6,2
"84",536,"Inconel 718","Additive",10.45,3.053,63970.1,2
"85",271,"Inconel 718","2 Axis Cutting",21.11,6.166,55982.7,2
"86",946,"Inconel 718","2.5 Axis Milling",21.11,6.167,49762.2,2
"87",982,"Inconel 718","Additive",8.59,2.509,89568.3,2
"88",612,"Inconel 718","Additive",11.28,3.296,60519.8,2
"89",146,"Inconel 718","Additive",12.17,3.556,55979.8,2
"90",418,"Inconel 718","Additive",18.35,5.362,44785.4,2
"91",945,"Inconel 718","2.5 Axis Milling",17.38,5.076,49763,2
"92",186,"Inconel 718","Additive",6.02,1.758,111951.9,2
"93",689,"Inconel 718","Additive",12.86,3.756,52074.7,2
"94",107,"Inconel 718","Additive",12.23,3.573,55979.8,2
"95",269,"Inconel 718","Additive",18.79,5.488,55983.2,2
"96",163,"Inconel 718","Additive",14.7,4.295,55979.8,2
"97",942,"Inconel 718","2 Axis Cutting",20.81,6.08,49764,2
"98",82,"Inconel 718","Additive",6.38,1.863,111949.5,2
"99",229,"Inconel 718","Additive",10.99,3.209,55984,2
"100",417,"Inconel 718","Additive",18.88,5.516,44784.7,2
"101",487,"Inconel 718","Additive",9.75,2.847,63980.3,2
"102",783,"Inconel 718","2.5 Axis Milling",14.11,4.122,57418,2
"103",688,"Inconel 718","Additive",12.86,3.757,52077.7,2
"104",699,"Inconel 718","3 Axis Milling",15.81,4.619,52072.8,2
"105",147,"Inconel 625","Unrestricted",13.59,4.144,46483.3,3
"106",28,"Inconel 625","Unrestricted",17.68,5.39,37187.4,3
"107",790,"Inconel 625","Additive",14.24,4.343,47665.2,3
"108",128,"Inconel 625","Unrestricted",14.46,4.409,46484.4,3
"109",274,"Inconel 625","Additive",25.01,7.625,46477.7,3
"110",497,"Inconel 625","Additive",11.88,3.624,53124.5,3
"111",395,"Inconel 625","Die Casting",6.7,2.043,92950.8,3
"112",277,"Inconel 625","2 Axis Cutting",33.74,10.287,46480,3
"113",550,"Inconel 625","Additive",12.65,3.856,53112.2,3
"114",625,"Inconel 625","Unrestricted",13.43,4.096,50251.1,3
"115",791,"Inconel 625","Additive",15.56,4.746,47675,3
"116",986,"Inconel 625","Additive",10.35,3.155,74375.2,3
"117",108,"Inconel 625","Unrestricted",13.92,4.245,46483.6,3
"118",710,"Inconel 625","2.5 Axis Milling",43.35,13.219,43233.6,3
"119",954,"Inconel 625","Additive",18.78,5.726,41318.2,3
"120",276,"Inconel 625","Additive",24.88,7.588,46483.6,3
"121",301,"Stainless Steel, 440C","2 Axis Cutting",19.76,5.531,49964.1,3
"122",346,"Inconel 625","Additive",26.82,8.177,30987.2,3
"123",987,"Inconel 625","Additive",11.25,3.429,74363,3
"124",110,"Inconel 625","Additive",13.7,4.178,46481.5,3
"125",794,"Inconel 625","2.5 Axis Milling",21.71,6.621,47672.9,3
"126",635,"Inconel 625","3 Axis Milling",16.64,5.074,50249.9,3
"127",57,"Inconel 625","3 Axis Milling",14.45,4.406,61977.5,3
"128",953,"Inconel 625","Additive",15.6,4.757,41308.4,3
"129",499,"Inconel 625","Additive",11.96,3.647,53123.5,3
"130",795,"Inconel 625","3 Axis Milling",17.43,5.315,47675.5,3
"131",952,"Inconel 625","Additive",15.28,4.659,41315.9,3
"132",706,"Inconel 625","Additive",15.83,4.827,43235.9,3
"133",626,"Inconel 625","Additive",13.3,4.056,50249.2,3
"134",628,"Inconel 625","Additive",15.54,4.739,50253.4,3
"135",188,"Inconel 625","Additive",6.97,2.126,92963.1,3
"136",553,"Inconel 625","2 Axis Cutting",19.22,5.862,53121.1,3
"137",393,"Inconel 625","Additive",7.16,2.182,92967.3,3
"138",456,"Inconel 625","2 Axis Cutting",19.13,5.832,53125,3
"139",211,"Stainless Steel, 440C","2 Axis Cutting",18.38,5.147,49965,3
"140",793,"Inconel 625","3 Axis Milling",17.43,5.315,47675.5,3
"141",708,"Inconel 625","5 Axis Milling",15.69,4.786,43240.7,3
"142",264,"Iron, Ductile","2 Axis Cutting",17.84,4.609,58806,3
"143",314,"Stainless Steel, 440C","Additive",16.94,4.742,49962.8,3
"144",956,"Inconel 625","2 Axis Cutting",29.31,8.937,41317.8,3
"145",131,"Inconel 625","Additive",14.7,4.481,46484.4,3
"146",556,"Inconel 625","2.5 Axis Milling",19.08,5.818,53123.3,3
"147",109,"Inconel 625","Additive",13.86,4.226,46478.1,3
"148",364,"Inconel 625","Additive",11.24,3.428,61976.3,3
"149",632,"Inconel 625","3 Axis Milling",16.64,5.074,50249.9,3
"150",363,"Inconel 625","Additive",10.19,3.107,61955,3
"151",701,"Inconel 625","Additive",14.79,4.51,43241.2,3
"152",631,"Inconel 625","5 Axis Milling",13.67,4.167,50250.9,3
"153",273,"Inconel 625","Unrestricted",25.79,7.865,46474.5,3
"154",634,"Inconel 625","2.5 Axis Milling",21.09,6.432,50250.9,3
"155",232,"Inconel 625","Additive",13.61,4.149,46484.4,3
"156",642,"Cobalt Chrome","Additive",16.3,4.883,45941.2,4
"157",192,"Cobalt Chrome","Additive",7.43,2.225,84990.4,4
"158",562,"Cobalt Chrome","Additive",14.75,4.417,48565.6,4
"159",457,"Cobalt Chrome","Unrestricted",17.78,5.326,48566.9,4
"160",966,"Cobalt Chrome","Additive",18.89,5.658,37774,4
"161",989,"Cobalt Chrome","Additive",11.63,3.482,67989.8,4
"162",872,"Cobalt Chrome","Additive",16.68,4.996,41455.7,4
"163",876,"Cobalt Chrome","Additive",18.71,5.603,41457.9,4
"164",640,"Cobalt Chrome","Additive",16.91,5.064,45937.5,4
"165",963,"Cobalt Chrome","Additive",17.5,5.242,37769.1,4
"166",798,"Cobalt Chrome","Additive",15.66,4.689,43580.1,4
"167",873,"Cobalt Chrome","Additive",16.74,5.012,41458.7,4
"168",90,"Cobalt Chrome","Additive",8.03,2.405,84978.5,4
"169",151,"Cobalt Chrome","Unrestricted",14.12,4.23,42495.2,4
"170",235,"Cobalt Chrome","Unrestricted",14.82,4.439,42494,4
"171",507,"Cobalt Chrome","Additive",13.18,3.947,48564.7,4
"172",281,"Cobalt Chrome","Additive",28.72,8.6,42494.2,4
"173",638,"Cobalt Chrome","Additive",14.59,4.37,45938.1,4
"174",570,"Cobalt Chrome","2.5 Axis Milling",21.92,6.566,48566.8,4
"175",801,"Cobalt Chrome","Additive",17.43,5.219,43583.6,4
"176",135,"Cobalt Chrome","Additive",16.66,4.99,42495.7,4
"177",238,"Cobalt Chrome","Additive",17.25,5.167,42494.4,4
"178",133,"Cobalt Chrome","Additive",16.19,4.847,42494.7,4
"179",718,"Cobalt Chrome","Additive",19.41,5.814,39530.7,4
"180",63,"Cobalt Chrome","Die Casting",11.93,3.573,56652,4
"181",368,"Cobalt Chrome","Additive",10.56,3.163,56661.1,4
"182",10,"Cobalt Chrome","Additive",15.84,4.743,42493.1,4
"183",510,"Cobalt Chrome","2 Axis Cutting",19.98,5.985,48566.9,4
"184",806,"Cobalt Chrome","Die Casting",17.12,5.128,43585.7,4
"185",460,"Cobalt Chrome","Additive",17.62,5.277,48562,4
"186",572,"Cobalt Chrome","Die Casting",14.73,4.412,48563,4
"187",338,"Iron, Ductile","Additive",17.91,4.627,39207.7,4
"188",152,"Cobalt Chrome","Additive",15.1,4.524,42493,4
"189",560,"Cobalt Chrome","Additive",13.82,4.139,48561.5,4
"190",566,"Cobalt Chrome","2 Axis Cutting",21.37,6.399,48566,4
"191",645,"Cobalt Chrome","5 Axis Milling",14.83,4.441,45934.5,4
"192",567,"Cobalt Chrome","5 Axis Milling",14.04,4.203,48553.3,4
"193",115,"Cobalt Chrome","Additive",14.59,4.37,42495.5,4
"194",60,"Cobalt Chrome","Additive",11.15,3.339,56648,4
"195",882,"Cobalt Chrome","Die Casting",18.01,5.394,41459.4,4
"196",134,"Cobalt Chrome","Additive",15.75,4.717,42495.7,4
"197",990,"Cobalt Chrome","Additive",11.45,3.428,67987.3,4
"198",719,"Cobalt Chrome","Additive",17.52,5.246,39530.3,4
"199",429,"Cobalt Chrome","Additive",30.33,9.084,33996.7,4
"200",968,"Cobalt Chrome","5 Axis Milling",17.96,5.378,37773.5,4
"201",430,"Cobalt Chrome","Additive",30.44,9.117,33992.6,4
"202",428,"Cobalt Chrome","Additive",30.82,9.23,33993.7,4
"203",113,"Cobalt Chrome","Additive",15.34,4.593,42496,4
"204",799,"Cobalt Chrome","Additive",18.17,5.441,43585.2,4
"205",112,"Cobalt Chrome","Unrestricted",14.32,4.29,42490.7,4
"206",724,"Cobalt Chrome","Die Casting",19.51,5.842,39529.1,4
"207",403,"Inconel 718 Plus","Additive",7.18,2.217,96279.1,5
"208",286,"Inconel 718 Plus","Additive",23.48,7.253,48151.1,5
"209",15,"Inconel 718 Plus","Additive",12.45,3.846,48149.3,5
"210",156,"Inconel 718 Plus","Additive",13.25,4.093,48145.6,5
"211",288,"Inconel 718 Plus","Additive",23.79,7.348,48139.3,5
"212",45,"Inconel 718 Plus","Die Casting",20.35,6.285,38521,5
"213",402,"Inconel 718 Plus","Additive",6.96,2.149,92291.4,5
"214",240,"Inconel 718 Plus","Additive",12.95,3.999,48146.1,5
"215",465,"Inconel 718 Plus","Additive",15.27,4.717,55024,5
"216",201,"Inconel 718 Plus","Additive",6.69,2.067,96302.5,5
"217",401,"Inconel 718 Plus","Additive",6.89,2.127,96301.4,5
"218",432,"Inconel 718 Plus","Additive",23.26,7.184,38518.6,5
"219",202,"Inconel 718 Plus","Additive",6.89,2.129,96299.8,5
"220",136,"Inconel 718 Plus","Unrestricted",13.67,4.224,48151.9,5
"221",464,"Inconel 718 Plus","Additive",14.85,4.586,55030.3,5
"222",993,"Inconel 718 Plus","Additive",9.91,3.061,77037.7,5
"223",375,"Inconel 718 Plus","Die Casting",8.83,2.727,64200.4,5
"224",14,"Inconel 718 Plus","Additive",13.6,4.201,48148.3,5
"225",16,"Inconel 718 Plus","Additive",14.11,4.359,48152.4,5
"226",249,"Stainless Steel, 440C","Additive",12.83,3.592,49963.6,5
"227",372,"Inconel 718 Plus","Additive",9.75,3.012,64194.1,5
"228",116,"Inconel 718 Plus","Unrestricted",13.42,4.146,48147.2,5
"229",66,"Inconel 718 Plus","Additive",9.96,3.076,64199.4,5
"230",209,"Stainless Steel, 440C","Additive",12.77,3.574,49963.3,5
"231",210,"Stainless Steel, 440C","Additive",13.45,3.765,49965.4,5
"232",300,"Stainless Steel, 440C","Additive",13.46,3.769,49965.5,5
"233",69,"Inconel 718 Plus","Die Casting",10.13,3.128,64199.5,5
"234",98,"Inconel 718 Plus","Additive",7.09,2.19,96300.8,5
"235",239,"Inconel 718 Plus","Unrestricted",11.73,3.624,48152,5
"236",994,"Inconel 718 Plus","Additive",10.64,3.287,77025.8,5
"237",373,"Inconel 718 Plus","Additive",9.84,3.039,64203,5
"238",248,"Stainless Steel, 440C","Additive",13.07,3.66,49961.9,5
"239",463,"Inconel 718 Plus","Additive",15.36,4.745,55013.4,5
"240",241,"Inconel 718 Plus","Additive",12.34,3.811,48143.8,5
"241",68,"Inconel 718 Plus","2 Axis Cutting",17.04,5.264,64201.9,5
"242",299,"Stainless Steel, 440C","Additive",12.92,3.616,49964.8,5
"243",200,"Inconel 718 Plus","Additive",6.76,2.088,96279,5
"244",175,"Inconel 718 Plus","Additive",17.73,5.478,48148.5,5
"245",155,"Inconel 718 Plus","Additive",12.58,3.886,48149.6,5
"246",174,"Inconel 718 Plus","Additive",16.94,5.232,48148.2,5
"247",298,"Stainless Steel, 440C","Additive",12.52,3.504,49963.6,5
"248",42,"Inconel 718 Plus","Additive",16.2,5.004,38520.8,5
"249",119,"Inconel 718 Plus","Additive",12.93,3.994,48150.8,5
"250",138,"Inconel 718 Plus","Additive",13.25,4.094,48150.4,5
"251",462,"Inconel 718 Plus","Unrestricted",15.52,4.795,55027.2,5
"252",348,"Inconel 718 Plus","Additive",25.73,7.947,32101.4,5
"253",39,"Inconel 718 Plus","Unrestricted",16.76,5.177,38511.5,5
"254",13,"Inconel 718 Plus","Unrestricted",13.58,4.195,48136.6,5
"255",43,"Inconel 718 Plus","2 Axis Cutting",44.7,13.807,38518.5,5
"256",41,"Inconel 718 Plus","Additive",16.85,5.204,38519.3,5
"257",289,"Inconel 718 Plus","2 Axis Cutting",30.2,9.328,48150.5,5
"258",998,"Stainless Steel 17-4 PH","Additive",11.79,3.324,69607.3,6
"259",76,"Stainless Steel 17-4 PH","Die Casting",11.45,3.226,58012.2,6
"260",409,"Stainless Steel 17-4 PH","Die Casting",6.85,1.93,87016.8,6
"261",577,"Stainless Steel 17-4 PH","Additive",13.43,3.784,49719.8,6
"262",580,"Stainless Steel 17-4 PH","2 Axis Cutting",20.94,5.9,49719.5,6
"263",583,"Stainless Steel 17-4 PH","2.5 Axis Milling",17.43,4.912,49726.7,6
"264",467,"Stainless Steel 17-4 PH","Unrestricted",17.41,4.906,49716,6
"265",660,"Stainless Steel 17-4 PH","2.5 Axis Milling",22.49,6.336,47036.1,6
"266",891,"Stainless Steel 17-4 PH","5 Axis Milling",15.22,4.29,42448.5,6
"267",103,"Stainless Steel 17-4 PH","Additive",7.85,2.213,87021.1,6
"268",379,"Stainless Steel 17-4 PH","Additive",12.09,3.407,58007.9,6
"269",408,"Stainless Steel 17-4 PH","Additive",7.78,2.192,87017.3,6
"270",728,"Stainless Steel 17-4 PH","Additive",19.63,5.532,40475.1,6
"271",243,"Stainless Steel 17-4 PH","Unrestricted",13.28,3.741,43509.4,6
"272",470,"Stainless Steel 17-4 PH","Additive",16.69,4.704,49712.8,6
"273",808,"Stainless Steel 17-4 PH","Additive",15.24,4.293,44623.1,6
"274",727,"Stainless Steel 17-4 PH","Additive",17.3,4.876,40474.9,6
"275",140,"Stainless Steel 17-4 PH","Additive",15.5,4.368,43510.3,6
"276",514,"Stainless Steel 17-4 PH","Additive",12.35,3.48,49727.1,6
"277",177,"Stainless Steel 17-4 PH","Additive",19.46,5.485,43506.7,6
"278",736,"Stainless Steel 17-4 PH","Die Casting",18.88,5.32,40472.5,6
"279",74,"Stainless Steel 17-4 PH","2 Axis Cutting",18.16,5.117,58014.1,6
"280",160,"Stainless Steel 17-4 PH","Additive",14.93,4.209,43503.6,6
"281",179,"Stainless Steel 17-4 PH","Additive",19.63,5.532,43503.3,6
"282",581,"Stainless Steel 17-4 PH","5 Axis Milling",13.66,3.85,49724.7,6
"283",518,"Stainless Steel 17-4 PH","Additive",12.64,3.56,49726.9,6
"284",814,"Stainless Steel 17-4 PH","2 Axis Cutting",26.32,7.418,44626.3,6
"285",377,"Stainless Steel 17-4 PH","Additive",10.82,3.05,58014.2,6
"286",75,"Stainless Steel 17-4 PH","3 Axis Milling",14.82,4.175,58011.5,6
"287",996,"Stainless Steel 17-4 PH","Additive",11.19,3.155,69614.6,6
"288",584,"Stainless Steel 17-4 PH","2.5 Axis Milling",21.07,5.937,49726.2,6
"289",579,"Stainless Steel 17-4 PH","Additive",13.5,3.804,49725.6,6
"290",578,"Stainless Steel 17-4 PH","Additive",14.79,4.169,49726.5,6
"291",292,"Stainless Steel 17-4 PH","Additive",27.28,7.687,43507,6
"292",884,"Stainless Steel 17-4 PH","Additive",16.14,4.547,42449.5,6
"293",471,"Stainless Steel 17-4 PH","2 Axis Cutting",21.89,6.167,49727.2,6
"294",469,"Stainless Steel 17-4 PH","Additive",16.66,4.696,49727.1,6
"295",807,"Stainless Steel 17-4 PH","Unrestricted",13.62,3.839,44624.9,6
"296",436,"Stainless Steel 17-4 PH","Unrestricted",30.17,8.503,34806.2,6
"297",893,"Stainless Steel 17-4 PH","2.5 Axis Milling",40.98,11.548,42448.7,6
"298",726,"Stainless Steel 17-4 PH","Additive",15.96,4.498,40474.6,6
"299",437,"Stainless Steel 17-4 PH","Additive",28.64,8.072,34808.2,6
"300",810,"Stainless Steel 17-4 PH","Additive",14.2,4.001,44616.3,6
"301",655,"Stainless Steel 17-4 PH","Additive",15.66,4.413,47028.6,6
"302",293,"Stainless Steel 17-4 PH","Additive",27.46,7.738,43504.5,6
"303",811,"Stainless Steel 17-4 PH","Additive",15.16,4.272,44623.7,6
"304",47,"Stainless Steel 17-4 PH","Additive",20.55,5.792,34808,6
"305",468,"Stainless Steel 17-4 PH","Additive",16.81,4.738,49721.8,6
"306",439,"Stainless Steel 17-4 PH","Additive",28.63,8.069,34808.6,6
"307",890,"Stainless Steel 17-4 PH","2 Axis Cutting",27.14,7.647,42446.2,6
"308",813,"Stainless Steel 17-4 PH","Additive",15.39,4.336,44624.2,6
"309",709,"Inconel 625","3 Axis Milling",31.86,9.715,43241,7
"310",671,"Iron, Malleable","3 Axis Milling",40.76,10.53,32581.5,7
"311",904,"Iron, Malleable","3 Axis Milling",43.26,11.175,31134.5,7
"312",38,"Cobalt Chrome","3 Axis Milling",35.61,10.666,33993.1,7
"313",427,"Cobalt Chrome","Unrestricted",32.13,9.624,33996.6,7
"314",44,"Inconel 718 Plus","3 Axis Milling",32.08,9.909,38521.5,7
"315",721,"Cobalt Chrome","5 Axis Milling",25.62,7.673,39527.6,7
"316",212,"Stainless Steel, 440C","3 Axis Milling",24.2,6.777,49873.9,7
"317",225,"Iron, Ductile","3 Axis Milling",13.47,3.48,58803.2,7
"318",969,"Cobalt Chrome","3 Axis Milling",35.25,10.556,37768.2,7
"319",720,"Cobalt Chrome","2 Axis Cutting",36.87,11.043,39529,7
"320",284,"Cobalt Chrome","3 Axis Milling",42.41,12.701,42495.2,7
"321",723,"Cobalt Chrome","3 Axis Milling",33.92,10.16,39525.9,7
"322",744,"Iron, Malleable","3 Axis Milling",36.92,9.537,35917.8,7
"323",815,"Stainless Steel 17-4 PH","3 Axis Milling",31.15,8.779,44602.6,7
"324",32,"Inconel 625","3 Axis Milling",33.02,10.069,37185.2,7
"325",649,"Cobalt Chrome","3 Axis Milling",30.97,9.275,45938.5,7
"326",568,"Cobalt Chrome","3 Axis Milling",17.01,5.096,48566.8,7
"327",959,"Inconel 625","3 Axis Milling",32.9,10.031,41317.7,7
"328",881,"Cobalt Chrome","3 Axis Milling",32.72,9.799,41455.5,7
"329",440,"Stainless Steel 17-4 PH","3 Axis Milling",42.77,12.053,34803.2,7
"330",722,"Cobalt Chrome","3 Axis Milling",33.92,10.16,39525.9,7
"331",880,"Cobalt Chrome","3 Axis Milling",32.72,9.799,41455.5,7
"332",894,"Stainless Steel 17-4 PH","3 Axis Milling",32.48,9.152,42446.1,7
"333",647,"Cobalt Chrome","2.5 Axis Milling",27.95,8.37,45939.6,7
"334",425,"Inconel 625","3 Axis Milling",35.12,10.708,37186.7,7
"335",272,"Inconel 718","3 Axis Milling",25.81,7.54,55982.2,7
"336",595,"Iron, Malleable","3 Axis Milling",35.21,9.096,37864.5,7
"337",802,"Cobalt Chrome","2 Axis Cutting",27.73,8.306,43585.4,7
"338",745,"Iron, Malleable","3 Axis Milling",36.92,9.537,35917.8,7
"339",829,"Iron, Malleable","3 Axis Milling",38.72,10.002,34170.6,7
"340",511,"Cobalt Chrome","3 Axis Milling",22.54,6.75,48353.8,7
"341",879,"Cobalt Chrome","5 Axis Milling",24.8,7.428,41457,7
"342",596,"Iron, Malleable","3 Axis Milling",35.21,9.096,37864.5,7
"343",333,"Titanium 6Al-4V","3 Axis Milling",26.24,4.199,42664.4,7
"344",34,"Cobalt Chrome","Unrestricted",26.52,7.942,33995.9,7
"345",805,"Cobalt Chrome","3 Axis Milling",31.78,9.517,43580,7
"346",878,"Cobalt Chrome","2 Axis Cutting",28.56,8.552,41456.4,7
"347",62,"Cobalt Chrome","3 Axis Milling",14.89,4.46,56654.7,7
"348",905,"Iron, Malleable","3 Axis Milling",43.26,11.175,31134.5,7
"349",958,"Inconel 625","3 Axis Milling",32.9,10.031,41317.7,7
"350",712,"Inconel 625","3 Axis Milling",31.86,9.715,43241,7
"351",967,"Cobalt Chrome","2 Axis Cutting",50.66,15.171,37771.1,7
"352",265,"Iron, Ductile","3 Axis Milling",15.16,3.916,58805.5,7
"353",350,"Stainless Steel 17-4 PH","3 Axis Milling",42.25,11.906,29007.5,7
"354",431,"Cobalt Chrome","3 Axis Milling",46.69,13.982,33995.6,7
"355",646,"Cobalt Chrome","3 Axis Milling",30.97,9.275,45938.5,7
"356",803,"Cobalt Chrome","2.5 Axis Milling",40.67,12.18,43584.1,7
"357",290,"Inconel 718 Plus","3 Axis Milling",32.69,10.098,48152.3,7
"358",316,"Stainless Steel, 440C","3 Axis Milling",22.2,6.216,49963.4,7
"359",818,"Stainless Steel 17-4 PH","3 Axis Milling",31.15,8.779,44602.6,7
"360",96,"Aluminum AlSi10Mg","Additive",22.52,2.172,34807,8
"361",825,"Iron, Malleable","Additive",24.04,6.209,34171.7,8
"362",198,"Aluminum AlSi10Mg","Additive",21.51,2.075,34808.2,8
"363",315,"Stainless Steel, 440C","2 Axis Cutting",21.7,6.077,49964.8,8
"364",181,"Stainless Steel AISI 304","Additive",26.77,7.738,31183.1,8
"365",590,"Iron, Malleable","Additive",20.98,5.42,37866.1,8
"366",78,"Stainless Steel AISI 304","Additive",26.4,7.631,31180.1,8
"367",740,"Iron, Malleable","Additive",19.8,5.114,35924.4,8
"368",666,"Iron, Malleable","Additive",24.59,6.353,32582.7,8
"369",665,"Iron, Malleable","Additive",23.38,6.04,32581.8,8
"370",668,"Iron, Malleable","Additive",26.04,6.726,32582.2,8
"371",741,"Iron, Malleable","Additive",22.5,5.812,35918.5,8
"372",746,"Iron, Malleable","Die Casting",23.77,6.141,35924.4,8
"373",589,"Iron, Malleable","Additive",18.1,4.675,37863.4,8
"374",900,"Iron, Malleable","Additive",26.81,6.926,31131.9,8
"375",95,"Aluminum AlSi10Mg","Additive",20.31,1.959,34806.3,8
"376",899,"Iron, Malleable","Additive",27.42,7.083,31134.5,8
"377",79,"Stainless Steel AISI 304","Additive",25.35,7.326,31182.8,8
"378",906,"Iron, Malleable","Die Casting",39.85,10.293,31134.6,8
"379",826,"Iron, Malleable","Additive",21.35,5.516,34169.3,8
"380",182,"Stainless Steel AISI 304","Additive",26.83,7.754,31181.9,8
"381",592,"Iron, Malleable","Additive",20.49,5.294,37865.8,8
"382",587,"Iron, Malleable","Unrestricted",17.23,4.45,37866.6,8
"383",94,"Aluminum AlSi10Mg","Additive",20.48,1.976,34807.9,8
"384",739,"Iron, Malleable","Additive",22.59,5.836,35923.8,8
"385",664,"Iron, Malleable","Additive",25.47,6.578,32582.4,8
"386",978,"Aluminum 7175 T73 0 Hot Formed","Additive",22.8,2.306,32415.6,8
"387",898,"Iron, Malleable","Additive",26.41,6.822,31134.1,8
"388",594,"Iron, Malleable","5 Axis Milling",25.89,6.688,37864.1,8
"389",743,"Iron, Malleable","5 Axis Milling",17.51,4.524,35923,8
"390",897,"Iron, Malleable","Additive",27.32,7.058,31134.3,8
"391",823,"Iron, Malleable","Additive",23.37,6.037,34168.9,8
"392",667,"Iron, Malleable","Additive",25.14,6.495,32582.3,8
"393",901,"Iron, Malleable","Additive",28.85,7.451,31133.7,8
"394",830,"Iron, Malleable","Die Casting",27.84,7.192,34168.2,8
"395",80,"Stainless Steel AISI 304","Additive",26.87,7.765,31182,8
"396",902,"Iron, Malleable","Additive",27.44,7.088,31134.2,8
"397",597,"Iron, Malleable","Die Casting",21.12,5.455,37861.6,8
"398",737,"Iron, Malleable","Additive",19.57,5.055,35924.1,8
"399",738,"Iron, Malleable","Additive",19.36,5.001,35923.9,8
"400",903,"Iron, Malleable","5 Axis Milling",24.21,6.253,31133.2,8
"401",977,"Aluminum 7175 T73 0 Hot Formed","Additive",25.26,2.555,32414.8,8
"402",183,"Stainless Steel AISI 304","Additive",26.61,7.692,31182.4,8
"403",669,"Iron, Malleable","Additive",26.37,6.812,32579.5,8
"404",821,"Iron, Malleable","Additive",23.45,6.057,34169.6,8
"405",196,"Aluminum AlSi10Mg","Additive",21.16,2.041,34806.1,8
"406",979,"Aluminum 7175 T73 0 Hot Formed","Additive",24.65,2.494,32413.8,8
"407",827,"Iron, Malleable","5 Axis Milling",27.91,7.209,34168.1,8
"408",824,"Iron, Malleable","Additive",23.49,6.068,34169.1,8
"409",896,"Iron, Malleable","Unrestricted",35.3,9.118,31132.5,8
"410",670,"Iron, Malleable","5 Axis Milling",35.06,9.056,32581.9,8
"411",924,"Titanium 6Al-4V","Additive",12.57,2.012,56885.5,9
"412",381,"Titanium 6Al-4V","Unrestricted",5.44,0.871,127997.9,9
"413",530,"Titanium 6Al-4V","2.5 Axis Milling",15.08,2.413,73142.4,9
"414",528,"Titanium 6Al-4V","3 Axis Milling",12.61,2.018,73137.4,9
"415",443,"Titanium 6Al-4V","Additive",11.01,1.762,73114.2,9
"416",321,"Titanium 6Al-4V","2 Axis Cutting",15.29,2.447,63999.7,9
"417",928,"Titanium 6Al-4V","2 Axis Cutting",18.14,2.903,56887,9
"418",481,"Titanium 6Al-4V","3 Axis Milling",9.1,1.457,73141.6,9
"419",415,"Titanium 6Al-4V","3 Axis Milling",21.53,3.445,51199.7,9
"420",474,"Titanium 6Al-4V","Additive",8.52,1.364,73127.9,9
"421",764,"Titanium 6Al-4V","Additive",10.19,1.63,65638.4,9
"422",306,"Titanium 6Al-4V","2 Axis Cutting",13.51,2.161,63996.6,9
"423",856,"Titanium 6Al-4V","3 Axis Milling",14.45,2.313,62436.4,9
"424",846,"Titanium 6Al-4V","Additive",10.71,1.714,62437.4,9
"425",524,"Titanium 6Al-4V","Additive",9.28,1.486,73133.9,9
"426",442,"Titanium 6Al-4V","Additive",10.6,1.696,73129.9,9
"427",215,"Titanium 6Al-4V","Additive",9.76,1.562,63999.6,9
"428",382,"Titanium 6Al-4V","Additive",5.68,0.909,127994.2,9
"429",854,"Titanium 6Al-4V","2.5 Axis Milling",13.23,2.117,62430.6,9
"430",384,"Titanium 6Al-4V","Additive",5.56,0.89,127989.6,9
"431",317,"Titanium 6Al-4V","Unrestricted",12.99,2.078,63983.6,9
"432",219,"Titanium 6Al-4V","Die Casting",9.89,1.583,63996.7,9
"433",331,"Titanium 6Al-4V","Additive",16.26,2.602,42665.6,9
"434",213,"Titanium 6Al-4V","Unrestricted",9.9,1.585,63993.3,9
"435",606,"Titanium 6Al-4V","3 Axis Milling",13.27,2.123,69168.7,9
"436",685,"Titanium 6Al-4V","2.5 Axis Milling",33.42,5.349,59530,9
"437",598,"Titanium 6Al-4V","Unrestricted",10.08,1.613,61183.9,9
"438",925,"Titanium 6Al-4V","Additive",11.69,1.87,56876.8,9
"439",680,"Titanium 6Al-4V","Additive",10.76,1.722,59523.5,9
"440",475,"Titanium 6Al-4V","Additive",8.42,1.348,73135.4,9
"441",351,"Titanium 6Al-4V","Unrestricted",7.57,1.211,85331.9,9
"442",847,"Titanium 6Al-4V","Additive",11.36,1.818,62435.7,9
"443",352,"Titanium 6Al-4V","Additive",7.53,1.205,85325.9,9
"444",479,"Titanium 6Al-4V","Additive",8.62,1.379,73136.6,9
"445",931,"Titanium 6Al-4V","2.5 Axis Milling",14.21,2.275,56873.1,9
"446",921,"Titanium 6Al-4V","Unrestricted",11.93,1.91,56888.6,9
"447",218,"Titanium 6Al-4V","3 Axis Milling",12.79,2.047,63989,9
"448",304,"Titanium 6Al-4V","Additive",9.71,1.555,63995.8,9
"449",320,"Titanium 6Al-4V","Additive",13.05,2.089,63995.8,9
"450",445,"Titanium 6Al-4V","5 Axis Milling",11.11,1.778,73136.7,9
"451",523,"Titanium 6Al-4V","Additive",9.75,1.561,73137.1,9
"452",765,"Titanium 6Al-4V","Additive",11.03,1.765,65638.5,9
"453",934,"Titanium 6Al-4V","Die Casting",11.51,1.842,56871.4,9
"454",253,"Titanium 6Al-4V","Unrestricted",10.79,1.727,63998.8,9
"455",216,"Titanium 6Al-4V","Additive",10.16,1.625,63999.1,9
"456",257,"Titanium 6Al-4V","2 Axis Cutting",17.01,2.723,63999.3,9
"457",929,"Titanium 6Al-4V","5 Axis Milling",12.12,1.94,56879.1,9
"458",684,"Titanium 6Al-4V","2.5 Axis Milling",13.76,2.202,59528.6,9
"459",930,"Titanium 6Al-4V","3 Axis Milling",15.03,2.406,56885.6,9
"460",857,"Titanium 6Al-4V","Die Casting",10.4,1.665,62419.2,9
"461",302,"Titanium 6Al-4V","Unrestricted",9.37,1.499,63999.5,9
"462",759,"Stainless Steel AISI 440C, Welded","Die Casting",13.63,3.842,51244,10
"463",908,"Stainless Steel AISI 440C, Welded","Additive",14.4,4.059,44408,10
"464",913,"Stainless Steel AISI 440C, Welded","Additive",15.51,4.369,44413.2,10
"465",910,"Stainless Steel AISI 440C, Welded","Additive",14.14,3.984,44410.4,10
"466",915,"Stainless Steel AISI 440C, Welded","5 Axis Milling",15.13,4.263,44412.8,10
"467",755,"Stainless Steel AISI 440C, Welded","3 Axis Milling",16.49,4.648,51246.2,10
"468",750,"Stainless Steel AISI 440C, Welded","Additive",14.23,4.01,51242.9,10
"469",752,"Stainless Steel AISI 440C, Welded","Additive",14.34,4.042,51243.8,10
"470",832,"Stainless Steel AISI 440C, Welded","Additive",13.86,3.907,48735.7,10
"471",914,"Stainless Steel AISI 440C, Welded","2 Axis Cutting",26.46,7.456,44410.3,10
"472",837,"Stainless Steel AISI 440C, Welded","Additive",14.06,3.963,48743.8,10
"473",834,"Stainless Steel AISI 440C, Welded","Additive",14.46,4.074,48735.3,10
"474",836,"Stainless Steel AISI 440C, Welded","Additive",15.31,4.314,48741.1,10
"475",757,"Stainless Steel AISI 440C, Welded","2.5 Axis Milling",20.31,5.723,51238.5,10
"476",831,"Stainless Steel AISI 440C, Welded","Unrestricted",13.92,3.922,48745.2,10
"477",747,"Stainless Steel AISI 440C, Welded","Unrestricted",13.29,3.746,51246.2,10
"478",912,"Stainless Steel AISI 440C, Welded","Additive",16.61,4.68,44411.1,10
"479",252,"Stainless Steel, 440C","Die Casting",14.03,3.927,49964.3,10
"480",756,"Stainless Steel AISI 440C, Welded","2.5 Axis Milling",16.1,4.537,51246.3,10
"481",753,"Stainless Steel AISI 440C, Welded","Additive",13.23,3.729,51245,10
"482",838,"Stainless Steel AISI 440C, Welded","2 Axis Cutting",21.22,5.978,48744.3,10
"483",842,"Stainless Steel AISI 440C, Welded","2.5 Axis Milling",21.66,6.104,48746.1,10
"484",841,"Stainless Steel AISI 440C, Welded","2.5 Axis Milling",19.49,5.492,48740.8,10
"485",918,"Stainless Steel AISI 440C, Welded","2.5 Axis Milling",38.28,10.788,44412.5,10
"486",754,"Stainless Steel AISI 440C, Welded","5 Axis Milling",13.33,3.755,51243.8,10
"487",751,"Stainless Steel AISI 440C, Welded","Additive",13.03,3.671,51246.4,10
"488",748,"Stainless Steel AISI 440C, Welded","Additive",12.62,3.556,51243.5,10
"489",835,"Stainless Steel AISI 440C, Welded","Additive",13.78,3.883,48744.8,10
"490",907,"Stainless Steel AISI 440C, Welded","Unrestricted",13.69,3.857,44412.4,10
"491",749,"Stainless Steel AISI 440C, Welded","Additive",12.99,3.66,51246.6,10
"492",920,"Stainless Steel AISI 440C, Welded","Die Casting",16.42,4.628,44412,10
"493",843,"Stainless Steel AISI 440C, Welded","3 Axis Milling",16.88,4.757,48744.5,10
"494",758,"Stainless Steel AISI 440C, Welded","3 Axis Milling",16.49,4.648,51246.2,10
"495",911,"Stainless Steel AISI 440C, Welded","Additive",15.24,4.294,44410.9,10
"496",839,"Stainless Steel AISI 440C, Welded","5 Axis Milling",14.06,3.961,48740.9,10
"497",917,"Stainless Steel AISI 440C, Welded","2.5 Axis Milling",34.4,9.693,44405.4,10
"498",909,"Stainless Steel AISI 440C, Welded","Additive",15.27,4.303,44413.6,10
"499",833,"Stainless Steel AISI 440C, Welded","Additive",13.67,3.853,48741,10
"500",840,"Stainless Steel AISI 440C, Welded","3 Axis Milling",16.88,4.757,48744.5,10
