"id","OutcomeID","Material","ManufacturingMethod","Volume","Mass","MaxVonMisesStress","cluster"
"1",1,"Inconel 718","Unrestricted",12.16,3.552,55973.5,None
"2",2,"Inconel 718","Additive",11.92,3.481,55976.9,None
"3",3,"Inconel 718","Additive",11.33,3.309,55984,None
"4",4,"Inconel 718","Additive",13.07,3.817,55980.3,None
"5",5,"Inconel 625","Unrestricted",14.44,4.403,46473,None
"6",6,"Inconel 625","Additive",13.68,4.171,46480.6,None
"7",7,"Inconel 625","Additive",14,4.268,46480.4,None
"8",8,"Inconel 625","Additive",16.26,4.958,46482.9,None
"9",9,"Cobalt Chrome","Unrestricted",14.34,4.295,42492.6,None
"10",10,"Cobalt Chrome","Additive",15.84,4.743,42493.1,None
"11",11,"Cobalt Chrome","Additive",15.61,4.677,42495.7,None
"12",12,"Cobalt Chrome","Additive",14.46,4.332,42495.6,None
"13",13,"Inconel 718 Plus","Unrestricted",13.58,4.195,48136.6,None
"14",14,"Inconel 718 Plus","Additive",13.6,4.201,48148.3,None
"15",15,"Inconel 718 Plus","Additive",12.45,3.846,48149.3,None
"16",16,"Inconel 718 Plus","Additive",14.11,4.359,48152.4,None
"17",17,"Stainless Steel 17-4 PH","Unrestricted",15.38,4.334,43502,None
"18",18,"Stainless Steel 17-4 PH","Additive",15.43,4.348,43505.3,None
"19",19,"Stainless Steel 17-4 PH","Additive",13.92,3.923,43507.2,None
"20",20,"Stainless Steel 17-4 PH","Additive",14.17,3.993,43507.7,None
"21",21,"Inconel 718","Unrestricted",13.57,3.963,44786.6,None
"22",22,"Inconel 718","Additive",14.78,4.318,44786.5,None
"23",23,"Inconel 718","Additive",14.6,4.266,44786.6,None
"24",24,"Inconel 718","Additive",14.42,4.213,44783.3,None
"25",25,"Inconel 718","2 Axis Cutting",25.2,7.361,44786.7,None
"26",26,"Inconel 718","3 Axis Milling",29.75,8.692,44785.2,None
"27",27,"Inconel 718","Die Casting",16.36,4.78,44784.4,None
"28",28,"Inconel 625","Unrestricted",17.68,5.39,37187.4,None
"29",29,"Inconel 625","Additive",18.05,5.503,37184.6,None
"30",30,"Inconel 625","Additive",17.48,5.331,37187.2,None
"31",31,"Inconel 625","2 Axis Cutting",57.94,17.666,37187.6,None
"32",32,"Inconel 625","3 Axis Milling",33.02,10.069,37185.2,None
"33",33,"Inconel 625","Die Casting",21.37,6.515,37187.3,None
"34",34,"Cobalt Chrome","Unrestricted",26.52,7.942,33995.9,None
"35",35,"Cobalt Chrome","Additive",22.14,6.63,33996.7,None
"36",36,"Cobalt Chrome","Additive",21.57,6.446,33996.1,None
"37",37,"Cobalt Chrome","Additive",23.25,6.965,33996.8,None
"38",38,"Cobalt Chrome","3 Axis Milling",35.61,10.666,33993.1,None
"39",39,"Inconel 718 Plus","Unrestricted",16.76,5.177,38511.5,None
"40",40,"Inconel 718 Plus","Additive",17.12,5.288,38520.5,None
"41",41,"Inconel 718 Plus","Additive",16.85,5.204,38519.3,None
"42",42,"Inconel 718 Plus","Additive",16.2,5.004,38520.8,None
"43",43,"Inconel 718 Plus","2 Axis Cutting",44.7,13.807,38518.5,None
"44",44,"Inconel 718 Plus","3 Axis Milling",32.08,9.909,38521.5,None
"45",45,"Inconel 718 Plus","Die Casting",20.35,6.285,38521,None
"46",46,"Stainless Steel 17-4 PH","Unrestricted",25.46,7.175,34807.7,None
"47",47,"Stainless Steel 17-4 PH","Additive",20.55,5.792,34808,None
"48",48,"Stainless Steel 17-4 PH","Additive",20.38,5.742,34808.5,None
"49",49,"Inconel 718","Unrestricted",9.31,2.72,74629,None
"50",50,"Inconel 718","Additive",8.96,2.617,74835.5,None
"51",51,"Inconel 718","Additive",8.89,2.596,74642.8,None
"52",52,"Inconel 718","3 Axis Milling",12.64,3.692,74639.7,None
"53",53,"Inconel 625","Unrestricted",11.1,3.385,61973,None
"54",54,"Inconel 625","Additive",10.66,3.25,61976.7,None
"55",55,"Inconel 625","Additive",10.28,3.134,61976.9,None
"56",56,"Inconel 625","2 Axis Cutting",17.21,5.248,61979.4,None
"57",57,"Inconel 625","3 Axis Milling",14.45,4.406,61977.5,None
"58",58,"Inconel 625","Die Casting",10.78,3.287,61972.1,None
"59",59,"Cobalt Chrome","Additive",11.66,3.492,56658.2,None
"60",60,"Cobalt Chrome","Additive",11.15,3.339,56648,None
"61",61,"Cobalt Chrome","2 Axis Cutting",18.21,5.453,56652,None
"62",62,"Cobalt Chrome","3 Axis Milling",14.89,4.46,56654.7,None
"63",63,"Cobalt Chrome","Die Casting",11.93,3.573,56652,None
"64",64,"Inconel 718 Plus","Unrestricted",10.78,3.33,64192.2,None
"65",65,"Inconel 718 Plus","Additive",10.22,3.157,64201.8,None
"66",66,"Inconel 718 Plus","Additive",9.96,3.076,64199.4,None
"67",67,"Inconel 718 Plus","Additive",10.42,3.217,64203,None
"68",68,"Inconel 718 Plus","2 Axis Cutting",17.04,5.264,64201.9,None
"69",69,"Inconel 718 Plus","Die Casting",10.13,3.128,64199.5,None
"70",70,"Stainless Steel 17-4 PH","Unrestricted",11.81,3.327,58014.1,None
"71",71,"Stainless Steel 17-4 PH","Additive",11.43,3.221,58009.6,None
"72",72,"Stainless Steel 17-4 PH","Additive",10.72,3.022,58011.2,None
"73",73,"Stainless Steel 17-4 PH","Additive",12.44,3.505,58014.2,None
"74",74,"Stainless Steel 17-4 PH","2 Axis Cutting",18.16,5.117,58014.1,None
"75",75,"Stainless Steel 17-4 PH","3 Axis Milling",14.82,4.175,58011.5,None
"76",76,"Stainless Steel 17-4 PH","Die Casting",11.45,3.226,58012.2,None
"77",77,Stainless Steel AISI 304,"Unrestricted",35.23,10.182,31182.5,None
"78",78,Stainless Steel AISI 304,"Additive",26.4,7.631,31180.1,None
"79",79,Stainless Steel AISI 304,"Additive",25.35,7.326,31182.8,None
"80",80,Stainless Steel AISI 304,"Additive",26.87,7.765,31182,None
"81",81,"Inconel 718","Unrestricted",6.47,1.889,111962.6,None
"82",82,"Inconel 718","Additive",6.38,1.863,111949.5,None
"83",83,"Inconel 718","Additive",6.41,1.872,111966.8,None
"84",84,"Inconel 718","Additive",6.48,1.892,111958.6,None
"85",85,"Inconel 625","Unrestricted",7.4,2.256,92961.5,None
"86",86,"Inconel 625","Additive",7.47,2.278,92963.3,None
"87",87,"Inconel 625","Additive",7.3,2.224,92969.1,None
"88",88,"Inconel 625","Additive",7.46,2.273,92963.6,None
"89",89,"Cobalt Chrome","Unrestricted",7.98,2.389,84990,None
"90",90,"Cobalt Chrome","Additive",8.03,2.405,84978.5,None
"91",91,"Cobalt Chrome","Additive",7.84,2.349,84986.1,None
"92",92,"Cobalt Chrome","Additive",8.38,2.511,84980.9,None
"93",93,Aluminum AlSi10Mg,"Unrestricted",25.49,2.459,34805.6,None
"94",94,Aluminum AlSi10Mg,"Additive",20.48,1.976,34807.9,None
"95",95,Aluminum AlSi10Mg,"Additive",20.31,1.959,34806.3,None
"96",96,Aluminum AlSi10Mg,"Additive",22.52,2.172,34807,None
"97",97,"Inconel 718 Plus","Unrestricted",7.31,2.257,96298.5,None
"98",98,"Inconel 718 Plus","Additive",7.09,2.19,96300.8,None
"99",99,"Inconel 718 Plus","Additive",7.27,2.247,96296.9,None
"100",100,"Stainless Steel 17-4 PH","Unrestricted",7.76,2.187,87011.2,None
"101",101,"Stainless Steel 17-4 PH","Additive",7.84,2.208,87015.2,None
"102",102,"Stainless Steel 17-4 PH","Additive",7.59,2.139,87014.8,None
"103",103,"Stainless Steel 17-4 PH","Additive",7.85,2.213,87021.1,None
"104",104,"Inconel 718","Unrestricted",11.24,3.282,55980.3,None
"105",105,"Inconel 718","Additive",11.2,3.271,55982.8,None
"106",106,"Inconel 718","Additive",11.1,3.242,55984.5,None
"107",107,"Inconel 718","Additive",12.23,3.573,55979.8,None
"108",108,"Inconel 625","Unrestricted",13.92,4.245,46483.6,None
"109",109,"Inconel 625","Additive",13.86,4.226,46478.1,None
"110",110,"Inconel 625","Additive",13.7,4.178,46481.5,None
"111",111,"Inconel 625","Additive",13.24,4.038,46483.1,None
"112",112,"Cobalt Chrome","Unrestricted",14.32,4.29,42490.7,None
"113",113,"Cobalt Chrome","Additive",15.34,4.593,42496,None
"114",114,"Cobalt Chrome","Additive",14.62,4.377,42493.6,None
"115",115,"Cobalt Chrome","Additive",14.59,4.37,42495.5,None
"116",116,"Inconel 718 Plus","Unrestricted",13.42,4.146,48147.2,None
"117",117,"Inconel 718 Plus","Additive",13.31,4.113,48149.3,None
"118",118,"Inconel 718 Plus","Additive",12.85,3.97,48150.3,None
"119",119,"Inconel 718 Plus","Additive",12.93,3.994,48150.8,None
"120",120,"Stainless Steel 17-4 PH","Unrestricted",14.99,4.225,43510.6,None
"121",121,"Stainless Steel 17-4 PH","Additive",15.05,4.241,43504.3,None
"122",122,"Stainless Steel 17-4 PH","Additive",14.85,4.184,43510.4,None
"123",123,"Stainless Steel 17-4 PH","Additive",14.24,4.014,43506.5,None
"124",124,"Inconel 718","Unrestricted",10.78,3.149,55976.5,None
"125",125,"Inconel 718","Additive",11.18,3.267,55976.4,None
"126",126,"Inconel 718","Additive",10.99,3.21,55983.7,None
"127",127,"Inconel 718","Additive",12.15,3.548,55983.6,None
"128",128,"Inconel 625","Unrestricted",14.46,4.409,46484.4,None
"129",129,"Inconel 625","Additive",14.19,4.328,46482.4,None
"130",130,"Inconel 625","Additive",14,4.268,46480,None
"131",131,"Inconel 625","Additive",14.7,4.481,46484.4,None
"132",132,"Cobalt Chrome","Unrestricted",16.45,4.926,42494,None
"133",133,"Cobalt Chrome","Additive",16.19,4.847,42494.7,None
"134",134,"Cobalt Chrome","Additive",15.75,4.717,42495.7,None
"135",135,"Cobalt Chrome","Additive",16.66,4.99,42495.7,None
"136",136,"Inconel 718 Plus","Unrestricted",13.67,4.224,48151.9,None
"137",137,"Inconel 718 Plus","Additive",13.58,4.193,48152.4,None
"138",138,"Inconel 718 Plus","Additive",13.25,4.094,48150.4,None
"139",139,"Inconel 718 Plus","Additive",14.1,4.355,48140.9,None
"140",140,"Stainless Steel 17-4 PH","Additive",15.5,4.368,43510.3,None
"141",141,"Stainless Steel 17-4 PH","Additive",15.4,4.34,43507.9,None
"142",142,"Stainless Steel 17-4 PH","Additive",16.27,4.584,43507.6,None
"143",143,"Inconel 718","Unrestricted",11.28,3.294,55983.8,None
"144",144,"Inconel 718","Additive",10.46,3.055,55981.9,None
"145",145,"Inconel 718","Additive",11.18,3.266,55973.5,None
"146",146,"Inconel 718","Additive",12.17,3.556,55979.8,None
"147",147,"Inconel 625","Unrestricted",13.59,4.144,46483.3,None
"148",148,"Inconel 625","Additive",12.67,3.864,46484,None
"149",149,"Inconel 625","Additive",13.84,4.221,46484.2,None
"150",150,"Inconel 625","Additive",15.52,4.733,46481.3,None
"151",151,"Cobalt Chrome","Unrestricted",14.12,4.23,42495.2,None
"152",152,"Cobalt Chrome","Additive",15.1,4.524,42493,None
"153",153,"Cobalt Chrome","Additive",14.99,4.489,42493,None
"154",154,"Cobalt Chrome","Additive",14.36,4.3,42493,None
"155",155,"Inconel 718 Plus","Additive",12.58,3.886,48149.6,None
"156",156,"Inconel 718 Plus","Additive",13.25,4.093,48145.6,None
"157",157,"Inconel 718 Plus","Additive",12.21,3.773,48150.5,None
"158",158,"Stainless Steel 17-4 PH","Unrestricted",13.27,3.738,43510.5,None
"159",159,"Stainless Steel 17-4 PH","Additive",14.24,4.013,43509.7,None
"160",160,"Stainless Steel 17-4 PH","Additive",14.93,4.209,43503.6,None
"161",161,"Stainless Steel 17-4 PH","Additive",14.05,3.96,43510.9,None
"162",162,"Inconel 718","Unrestricted",15.19,4.439,55980,None
"163",163,"Inconel 718","Additive",14.7,4.295,55979.8,None
"164",164,"Inconel 718","Additive",14.49,4.232,55978.9,None
"165",165,"Inconel 625","Unrestricted",18.7,5.703,46483.8,None
"166",166,"Inconel 625","Additive",17.93,5.467,46474.5,None
"167",167,"Inconel 625","Additive",17.74,5.408,46483.9,None
"168",168,"Inconel 625","Additive",18.36,5.599,46478.5,None
"169",169,"Cobalt Chrome","Additive",20.5,6.138,42490.3,None
"170",170,"Cobalt Chrome","Additive",19.7,5.899,42494.7,None
"171",171,"Cobalt Chrome","Additive",20.07,6.01,42493.2,None
"172",172,"Inconel 718 Plus","Unrestricted",17.87,5.52,48150,None
"173",173,"Inconel 718 Plus","Additive",17.56,5.423,48151.5,None
"174",174,"Inconel 718 Plus","Additive",16.94,5.232,48148.2,None
"175",175,"Inconel 718 Plus","Additive",17.73,5.478,48148.5,None
"176",176,"Stainless Steel 17-4 PH","Unrestricted",20,5.637,43511.3,None
"177",177,"Stainless Steel 17-4 PH","Additive",19.46,5.485,43506.7,None
"178",178,"Stainless Steel 17-4 PH","Additive",19.17,5.402,43510.6,None
"179",179,"Stainless Steel 17-4 PH","Additive",19.63,5.532,43503.3,None
"180",180,Stainless Steel AISI 304,"Unrestricted",32.46,9.381,31182.8,None
"181",181,Stainless Steel AISI 304,"Additive",26.77,7.738,31183.1,None
"182",182,Stainless Steel AISI 304,"Additive",26.83,7.754,31181.9,None
"183",183,Stainless Steel AISI 304,"Additive",26.61,7.692,31182.4,None
"184",184,"Inconel 718","Unrestricted",6.3,1.84,111953.1,None
"185",185,"Inconel 718","Additive",5.88,1.718,111968.9,None
"186",186,"Inconel 718","Additive",6.02,1.758,111951.9,None
"187",187,"Inconel 625","Unrestricted",6.82,2.079,92964.4,None
"188",188,"Inconel 625","Additive",6.97,2.126,92963.1,None
"189",189,"Inconel 625","Additive",6.8,2.075,92948.8,None
"190",190,"Inconel 625","Additive",7.11,2.168,92965.9,None
"191",191,"Cobalt Chrome","Unrestricted",7.77,2.326,84989.4,None
"192",192,"Cobalt Chrome","Additive",7.43,2.225,84990.4,None
"193",193,"Cobalt Chrome","Additive",7.42,2.221,84991.3,None
"194",194,"Cobalt Chrome","Additive",7.52,2.254,84988.2,None
"195",195,Aluminum AlSi10Mg,"Unrestricted",22.47,2.168,34805.8,None
"196",196,Aluminum AlSi10Mg,"Additive",21.16,2.041,34806.1,None
"197",197,Aluminum AlSi10Mg,"Additive",20.43,1.97,34808.6,None
"198",198,Aluminum AlSi10Mg,"Additive",21.51,2.075,34808.2,None
"199",199,"Inconel 718 Plus","Unrestricted",6.83,2.111,96302.8,None
"200",200,"Inconel 718 Plus","Additive",6.76,2.088,96279,None
"201",201,"Inconel 718 Plus","Additive",6.69,2.067,96302.5,None
"202",202,"Inconel 718 Plus","Additive",6.89,2.129,96299.8,None
"203",203,"Stainless Steel 17-4 PH","Unrestricted",7.62,2.148,87020.5,None
"204",204,"Stainless Steel 17-4 PH","Additive",7.42,2.091,87020.1,None
"205",205,"Stainless Steel 17-4 PH","Additive",7.3,2.057,87014.8,None
"206",206,"Stainless Steel 17-4 PH","Additive",7.43,2.095,87021.9,None
"207",207,"Stainless Steel, 440C","Unrestricted",11.95,3.347,49965.3,None
"208",208,"Stainless Steel, 440C","Additive",12.67,3.547,49965.2,None
"209",209,"Stainless Steel, 440C","Additive",12.77,3.574,49963.3,None
"210",210,"Stainless Steel, 440C","Additive",13.45,3.765,49965.4,None
"211",211,"Stainless Steel, 440C","2 Axis Cutting",18.38,5.147,49965,None
"212",212,"Stainless Steel, 440C","3 Axis Milling",24.2,6.777,49873.9,None
"213",213,"Titanium 6Al-4V","Unrestricted",9.9,1.585,63993.3,None
"214",214,"Titanium 6Al-4V","Additive",9.74,1.558,63990.9,None
"215",215,"Titanium 6Al-4V","Additive",9.76,1.562,63999.6,None
"216",216,"Titanium 6Al-4V","Additive",10.16,1.625,63999.1,None
"217",217,"Titanium 6Al-4V","2 Axis Cutting",13.16,2.106,63999.6,None
"218",218,"Titanium 6Al-4V","3 Axis Milling",12.79,2.047,63989,None
"219",219,"Titanium 6Al-4V","Die Casting",9.89,1.583,63996.7,None
"220",220,"Iron, Ductile","Unrestricted",10.83,2.796,58812.8,None
"221",221,"Iron, Ductile","Additive",10.58,2.733,58809.8,None
"222",222,"Iron, Ductile","Additive",10.58,2.733,58809.7,None
"223",223,"Iron, Ductile","Additive",11.56,2.986,58805.4,None
"224",224,"Iron, Ductile","2 Axis Cutting",14.18,3.663,58812.1,None
"225",225,"Iron, Ductile","3 Axis Milling",13.47,3.48,58803.2,None
"226",226,"Iron, Ductile","Die Casting",10.83,2.798,58807,None
"227",227,"Inconel 718","Unrestricted",10.68,3.119,55982.4,None
"228",228,"Inconel 718","Additive",10.95,3.199,55978.9,None
"229",229,"Inconel 718","Additive",10.99,3.209,55984,None
"230",230,"Inconel 718","Additive",11.9,3.477,55983.6,None
"231",231,"Inconel 625","Unrestricted",13.06,3.983,46469.6,None
"232",232,"Inconel 625","Additive",13.61,4.149,46484.4,None
"233",233,"Inconel 625","Additive",13.12,4.001,46483.8,None
"234",234,"Inconel 625","Additive",12.7,3.874,46481.5,None
"235",235,"Cobalt Chrome","Unrestricted",14.82,4.439,42494,None
"236",236,"Cobalt Chrome","Additive",15.25,4.566,42491.5,None
"237",237,"Cobalt Chrome","Additive",14.54,4.355,42493,None
"238",238,"Cobalt Chrome","Additive",17.25,5.167,42494.4,None
"239",239,"Inconel 718 Plus","Unrestricted",11.73,3.624,48152,None
"240",240,"Inconel 718 Plus","Additive",12.95,3.999,48146.1,None
"241",241,"Inconel 718 Plus","Additive",12.34,3.811,48143.8,None
"242",242,"Inconel 718 Plus","Additive",12.24,3.781,48151.4,None
"243",243,"Stainless Steel 17-4 PH","Unrestricted",13.28,3.741,43509.4,None
"244",244,"Stainless Steel 17-4 PH","Additive",14.56,4.104,43511.2,None
"245",245,"Stainless Steel 17-4 PH","Additive",14.85,4.184,43505,None
"246",246,"Stainless Steel 17-4 PH","Additive",13.79,3.886,43504.1,None
"247",247,"Stainless Steel, 440C","Unrestricted",13.54,3.79,49961.9,None
"248",248,"Stainless Steel, 440C","Additive",13.07,3.66,49961.9,None
"249",249,"Stainless Steel, 440C","Additive",12.83,3.592,49963.6,None
"250",250,"Stainless Steel, 440C","Additive",13.57,3.8,49964,None
"251",251,"Stainless Steel, 440C","2 Axis Cutting",20.24,5.667,49962.3,None
"252",252,"Stainless Steel, 440C","Die Casting",14.03,3.927,49964.3,None
"253",253,"Titanium 6Al-4V","Unrestricted",10.79,1.727,63998.8,None
"254",254,"Titanium 6Al-4V","Additive",10.19,1.631,63997.2,None
"255",255,"Titanium 6Al-4V","Additive",9.93,1.589,63986.3,None
"256",256,"Titanium 6Al-4V","Additive",11.02,1.764,63998.4,None
"257",257,"Titanium 6Al-4V","2 Axis Cutting",17.01,2.723,63999.3,None
"258",258,"Titanium 6Al-4V","3 Axis Milling",14.23,2.277,63978.6,None
"259",259,"Titanium 6Al-4V","Die Casting",10.16,1.626,63999.4,None
"260",260,"Iron, Ductile","Unrestricted",11.62,3.003,58808.6,None
"261",261,"Iron, Ductile","Additive",11.17,2.886,58810.6,None
"262",262,"Iron, Ductile","Additive",10.84,2.8,58812,None
"263",263,"Iron, Ductile","Additive",11.42,2.95,58808.3,None
"264",264,"Iron, Ductile","2 Axis Cutting",17.84,4.609,58806,None
"265",265,"Iron, Ductile","3 Axis Milling",15.16,3.916,58805.5,None
"266",266,"Iron, Ductile","Die Casting",11.23,2.902,58809.8,None
"267",267,"Inconel 718","Unrestricted",20.82,6.083,55976.2,None
"268",268,"Inconel 718","Additive",18.68,5.457,55981.3,None
"269",269,"Inconel 718","Additive",18.79,5.488,55983.2,None
"270",270,"Inconel 718","Additive",19.68,5.749,55967.7,None
"271",271,"Inconel 718","2 Axis Cutting",21.11,6.166,55982.7,None
"272",272,"Inconel 718","3 Axis Milling",25.81,7.54,55982.2,None
"273",273,"Inconel 625","Unrestricted",25.79,7.865,46474.5,None
"274",274,"Inconel 625","Additive",25.01,7.625,46477.7,None
"275",275,"Inconel 625","Additive",24.86,7.581,46484.3,None
"276",276,"Inconel 625","Additive",24.88,7.588,46483.6,None
"277",277,"Inconel 625","2 Axis Cutting",33.74,10.287,46480,None
"278",278,"Inconel 625","3 Axis Milling",34.95,10.657,46483,None
"279",279,"Cobalt Chrome","Unrestricted",29.97,8.976,42494.2,None
"280",280,"Cobalt Chrome","Additive",28.37,8.496,42492.7,None
"281",281,"Cobalt Chrome","Additive",28.72,8.6,42494.2,None
"282",282,"Cobalt Chrome","Additive",28.33,8.485,42494.7,None
"283",283,"Cobalt Chrome","2 Axis Cutting",43.8,13.118,42494.9,None
"284",284,"Cobalt Chrome","3 Axis Milling",42.41,12.701,42495.2,None
"285",285,"Inconel 718 Plus","Unrestricted",24.48,7.562,48134.8,None
"286",286,"Inconel 718 Plus","Additive",23.48,7.253,48151.1,None
"287",287,"Inconel 718 Plus","Additive",23.05,7.119,48142.3,None
"288",288,"Inconel 718 Plus","Additive",23.79,7.348,48139.3,None
"289",289,"Inconel 718 Plus","2 Axis Cutting",30.2,9.328,48150.5,None
"290",290,"Inconel 718 Plus","3 Axis Milling",32.69,10.098,48152.3,None
"291",291,"Stainless Steel 17-4 PH","Unrestricted",29.02,8.178,43507.9,None
"292",292,"Stainless Steel 17-4 PH","Additive",27.28,7.687,43507,None
"293",293,"Stainless Steel 17-4 PH","Additive",27.46,7.738,43504.5,None
"294",294,"Stainless Steel 17-4 PH","Additive",27.18,7.66,43501.6,None
"295",295,"Stainless Steel 17-4 PH","2 Axis Cutting",40.57,11.433,43509.2,None
"296",296,"Stainless Steel 17-4 PH","3 Axis Milling",40.22,11.332,43509.9,None
"297",297,"Stainless Steel, 440C","Unrestricted",13.49,3.776,49961.4,None
"298",298,"Stainless Steel, 440C","Additive",12.52,3.504,49963.6,None
"299",299,"Stainless Steel, 440C","Additive",12.92,3.616,49964.8,None
"300",300,"Stainless Steel, 440C","Additive",13.46,3.769,49965.5,None
"301",301,"Stainless Steel, 440C","2 Axis Cutting",19.76,5.531,49964.1,None
"302",302,"Titanium 6Al-4V","Unrestricted",9.37,1.499,63999.5,None
"303",303,"Titanium 6Al-4V","Additive",9.61,1.538,63999.2,None
"304",304,"Titanium 6Al-4V","Additive",9.71,1.555,63995.8,None
"305",305,"Titanium 6Al-4V","Additive",10.68,1.709,63996.5,None
"306",306,"Titanium 6Al-4V","2 Axis Cutting",13.51,2.161,63996.6,None
"307",307,"Iron, Ductile","Unrestricted",11.4,2.945,58810.3,None
"308",308,"Iron, Ductile","Additive",11.02,2.846,58807.1,None
"309",309,"Iron, Ductile","Additive",10.63,2.747,58806.8,None
"310",310,"Iron, Ductile","Additive",10.96,2.83,58812.2,None
"311",311,"Iron, Ductile","2 Axis Cutting",14.74,3.807,58809,None
"312",312,"Stainless Steel, 440C","Additive",16.77,4.695,49956.5,None
"313",313,"Stainless Steel, 440C","Additive",16.29,4.56,49965.4,None
"314",314,"Stainless Steel, 440C","Additive",16.94,4.742,49962.8,None
"315",315,"Stainless Steel, 440C","2 Axis Cutting",21.7,6.077,49964.8,None
"316",316,"Stainless Steel, 440C","3 Axis Milling",22.2,6.216,49963.4,None
"317",317,"Titanium 6Al-4V","Unrestricted",12.99,2.078,63983.6,None
"318",318,"Titanium 6Al-4V","Additive",12.47,1.995,63996.2,None
"319",319,"Titanium 6Al-4V","Additive",12.12,1.939,63999.5,None
"320",320,"Titanium 6Al-4V","Additive",13.05,2.089,63995.8,None
"321",321,"Titanium 6Al-4V","2 Axis Cutting",15.29,2.447,63999.7,None
"322",322,"Titanium 6Al-4V","3 Axis Milling",16.12,2.58,63993,None
"323",323,"Iron, Ductile","Additive",14.44,3.731,58797.2,None
"324",324,"Iron, Ductile","Additive",14.1,3.642,58776.9,None
"325",325,"Iron, Ductile","Additive",13.75,3.552,58812,None
"326",326,"Iron, Ductile","Additive",14.41,3.721,58810.1,None
"327",327,"Iron, Ductile","3 Axis Milling",19.68,5.084,58809.7,None
"328",328,"Titanium 6Al-4V","Unrestricted",14.25,2.28,42660.7,None
"329",329,"Titanium 6Al-4V","Additive",15.07,2.411,42661.5,None
"330",330,"Titanium 6Al-4V","Additive",14.55,2.328,42665.2,None
"331",331,"Titanium 6Al-4V","Additive",16.26,2.602,42665.6,None
"332",332,"Titanium 6Al-4V","2 Axis Cutting",25.46,4.075,42664,None
"333",333,"Titanium 6Al-4V","3 Axis Milling",26.24,4.199,42664.4,None
"334",334,"Titanium 6Al-4V","Die Casting",16.33,2.614,42666.6,None
"335",335,"Iron, Ductile","Unrestricted",18.82,4.861,39207.7,None
"336",336,"Iron, Ductile","Additive",17.19,4.44,39206.5,None
"337",337,"Iron, Ductile","Additive",16.48,4.258,39208.5,None
"338",338,"Iron, Ductile","Additive",17.91,4.627,39207.7,None
"339",339,"Iron, Ductile","3 Axis Milling",28.25,7.298,39198.2,None
"340",340,"Inconel 718","Unrestricted",18.28,5.339,37322.3,None
"341",341,"Inconel 718","Additive",19.03,5.56,37322.5,None
"342",342,"Inconel 718","Additive",17.97,5.25,37321.8,None
"343",343,"Inconel 718","Additive",18.29,5.343,37322.7,None
"344",344,"Inconel 718","3 Axis Milling",29.58,8.64,37309.5,None
"345",345,"Inconel 625","Additive",27.18,8.288,30989.2,None
"346",346,"Inconel 625","Additive",26.82,8.177,30987.2,None
"347",347,"Inconel 625","3 Axis Milling",37.38,11.399,30986.6,None
"348",348,"Inconel 718 Plus","Additive",25.73,7.947,32101.4,None
"349",349,"Inconel 718 Plus","3 Axis Milling",35.2,10.874,32094,None
"350",350,"Stainless Steel 17-4 PH","3 Axis Milling",42.25,11.906,29007.5,None
"351",351,"Titanium 6Al-4V","Unrestricted",7.57,1.211,85331.9,None
"352",352,"Titanium 6Al-4V","Additive",7.53,1.205,85325.9,None
"353",353,"Titanium 6Al-4V","Additive",7.79,1.247,85320.4,None
"354",354,"Titanium 6Al-4V","Additive",7.94,1.271,85328.3,None
"355",355,"Titanium 6Al-4V","Die Casting",7.02,1.123,85327,None
"356",356,"Inconel 718","Unrestricted",8.59,2.51,74640.6,None
"357",357,"Inconel 718","Additive",8.42,2.458,74635.6,None
"358",358,"Inconel 718","Additive",8.57,2.504,74634.9,None
"359",359,"Inconel 718","Additive",9.03,2.639,74645.9,None
"360",360,"Inconel 718","Die Casting",7.74,2.26,74644.7,None
"361",361,"Inconel 625","Unrestricted",10.26,3.127,61961.3,None
"362",362,"Inconel 625","Additive",10.12,3.085,61978.4,None
"363",363,"Inconel 625","Additive",10.19,3.107,61955,None
"364",364,"Inconel 625","Additive",11.24,3.428,61976.3,None
"365",365,"Inconel 625","Die Casting",9.2,2.805,61974.3,None
"366",366,"Cobalt Chrome","Unrestricted",10.71,3.207,56645.9,None
"367",367,"Cobalt Chrome","Additive",11.11,3.328,56660.7,None
"368",368,"Cobalt Chrome","Additive",10.56,3.163,56661.1,None
"369",369,"Cobalt Chrome","Additive",11.76,3.523,56656.8,None
"370",370,"Cobalt Chrome","Die Casting",10.08,3.019,56655.1,None
"371",371,"Inconel 718 Plus","Unrestricted",9.83,3.036,64202.6,None
"372",372,"Inconel 718 Plus","Additive",9.75,3.012,64194.1,None
"373",373,"Inconel 718 Plus","Additive",9.84,3.039,64203,None
"374",374,"Inconel 718 Plus","Additive",10.48,3.237,64203.7,None
"375",375,"Inconel 718 Plus","Die Casting",8.83,2.727,64200.4,None
"376",376,"Stainless Steel 17-4 PH","Unrestricted",10.79,3.041,58013.6,None
"377",377,"Stainless Steel 17-4 PH","Additive",10.82,3.05,58014.2,None
"378",378,"Stainless Steel 17-4 PH","Additive",10.99,3.096,58011,None
"379",379,"Stainless Steel 17-4 PH","Additive",12.09,3.407,58007.9,None
"380",380,"Stainless Steel 17-4 PH","Die Casting",9.78,2.756,58004.1,None
"381",381,"Titanium 6Al-4V","Unrestricted",5.44,0.871,127997.9,None
"382",382,"Titanium 6Al-4V","Additive",5.68,0.909,127994.2,None
"383",383,"Titanium 6Al-4V","Additive",5.72,0.915,127980.7,None
"384",384,"Titanium 6Al-4V","Additive",5.56,0.89,127989.6,None
"385",385,"Titanium 6Al-4V","Die Casting",5.25,0.841,127984.5,None
"386",386,"Inconel 718","Unrestricted",6.09,1.778,111961.4,None
"387",387,"Inconel 718","Additive",6.18,1.807,111965.7,None
"388",388,"Inconel 718","Additive",6.19,1.807,111968.4,None
"389",389,"Inconel 718","Additive",6.32,1.847,111964.9,None
"390",390,"Inconel 718","Die Casting",5.72,1.671,111960,None
"391",391,"Inconel 625","Unrestricted",7.1,2.166,92963.5,None
"392",392,"Inconel 625","Additive",7.07,2.156,92958.3,None
"393",393,"Inconel 625","Additive",7.16,2.182,92967.3,None
"394",394,"Inconel 625","Additive",7.28,2.219,92963.9,None
"395",395,"Inconel 625","Die Casting",6.7,2.043,92950.8,None
"396",396,"Cobalt Chrome","Additive",7.56,2.265,84967.6,None
"397",397,"Cobalt Chrome","Additive",7.69,2.304,84990.2,None
"398",398,"Cobalt Chrome","Additive",7.99,2.392,84983.9,None
"399",399,"Cobalt Chrome","Die Casting",7.11,2.13,84991.2,None
"400",400,"Inconel 718 Plus","Unrestricted",6.83,2.11,96302.3,None
"401",401,"Inconel 718 Plus","Additive",6.89,2.127,96301.4,None
"402",402,"Inconel 718 Plus","Additive",6.96,2.149,92291.4,None
"403",403,"Inconel 718 Plus","Additive",7.18,2.217,96279.1,None
"404",404,"Inconel 718 Plus","Die Casting",6.35,1.963,96305,None
"405",405,"Stainless Steel 17-4 PH","Unrestricted",7.5,2.115,87013.8,None
"406",406,"Stainless Steel 17-4 PH","Additive",7.42,2.09,87017.3,None
"407",407,"Stainless Steel 17-4 PH","Additive",7.65,2.156,87021.3,None
"408",408,"Stainless Steel 17-4 PH","Additive",7.78,2.192,87017.3,None
"409",409,"Stainless Steel 17-4 PH","Die Casting",6.85,1.93,87016.8,None
"410",410,"Titanium 6Al-4V","Unrestricted",16.65,2.665,51186.7,None
"411",411,"Titanium 6Al-4V","Additive",15.95,2.553,51198.8,None
"412",412,"Titanium 6Al-4V","Additive",15.86,2.538,51188.9,None
"413",413,"Titanium 6Al-4V","Additive",16.45,2.632,51196.7,None
"414",414,"Titanium 6Al-4V","2 Axis Cutting",20.51,3.282,51199.1,None
"415",415,"Titanium 6Al-4V","3 Axis Milling",21.53,3.445,51199.7,None
"416",416,"Inconel 718","Unrestricted",19.53,5.705,44783.7,None
"417",417,"Inconel 718","Additive",18.88,5.516,44784.7,None
"418",418,"Inconel 718","Additive",18.35,5.362,44785.4,None
"419",419,"Inconel 718","Additive",18.83,5.5,44760.5,None
"420",420,"Inconel 718","3 Axis Milling",25.01,7.307,44785.5,None
"421",421,"Inconel 625","Unrestricted",25.55,7.791,37186.5,None
"422",422,"Inconel 625","Additive",25.16,7.672,37186.9,None
"423",423,"Inconel 625","Additive",24.85,7.577,37185.9,None
"424",424,"Inconel 625","Additive",25.09,7.651,37186.8,None
"425",425,"Inconel 625","3 Axis Milling",35.12,10.708,37186.7,None
"426",426,"Inconel 625","Die Casting",26.7,8.14,37184.1,None
"427",427,"Cobalt Chrome","Unrestricted",32.13,9.624,33996.6,None
"428",428,"Cobalt Chrome","Additive",30.82,9.23,33993.7,None
"429",429,"Cobalt Chrome","Additive",30.33,9.084,33996.7,None
"430",430,"Cobalt Chrome","Additive",30.44,9.117,33992.6,None
"431",431,"Cobalt Chrome","3 Axis Milling",46.69,13.982,33995.6,None
"432",432,"Inconel 718 Plus","Additive",23.26,7.184,38518.6,None
"433",433,"Inconel 718 Plus","Additive",23.21,7.169,38519,None
"434",434,"Inconel 718 Plus","Additive",23.22,7.173,38520.7,None
"435",435,"Inconel 718 Plus","3 Axis Milling",32.22,9.953,38520.5,None
"436",436,"Stainless Steel 17-4 PH","Unrestricted",30.17,8.503,34806.2,None
"437",437,"Stainless Steel 17-4 PH","Additive",28.64,8.072,34808.2,None
"438",438,"Stainless Steel 17-4 PH","Additive",29.03,8.181,34809,None
"439",439,"Stainless Steel 17-4 PH","Additive",28.63,8.069,34808.6,None
"440",440,"Stainless Steel 17-4 PH","3 Axis Milling",42.77,12.053,34803.2,None
"441",441,"Titanium 6Al-4V","Unrestricted",11.16,1.786,73140.8,None
"442",442,"Titanium 6Al-4V","Additive",10.6,1.696,73129.9,None
"443",443,"Titanium 6Al-4V","Additive",11.01,1.762,73114.2,None
"444",444,"Titanium 6Al-4V","2 Axis Cutting",12.77,2.043,73141.2,None
"445",445,"Titanium 6Al-4V","5 Axis Milling",11.11,1.778,73136.7,None
"446",446,"Inconel 718","Unrestricted",13.39,3.912,63977,None
"447",447,"Inconel 718","Additive",12.46,3.639,63981.4,None
"448",448,"Inconel 718","Additive",12.2,3.564,63969.2,None
"449",449,"Inconel 718","Additive",13.1,3.826,63981,None
"450",450,"Inconel 718","2 Axis Cutting",15.52,4.533,63978.5,None
"451",451,"Inconel 718","5 Axis Milling",13.39,3.912,63977.8,None
"452",452,"Inconel 625","Unrestricted",16.19,4.938,53119.6,None
"453",453,"Inconel 625","Additive",15.74,4.799,53102.3,None
"454",454,"Inconel 625","Additive",15.38,4.691,53121.9,None
"455",455,"Inconel 625","Additive",15.99,4.875,53119.8,None
"456",456,"Inconel 625","2 Axis Cutting",19.13,5.832,53125,None
"457",457,"Cobalt Chrome","Unrestricted",17.78,5.326,48566.9,None
"458",458,"Cobalt Chrome","Additive",17.47,5.231,48563.4,None
"459",459,"Cobalt Chrome","Additive",16.69,4.999,48566.9,None
"460",460,"Cobalt Chrome","Additive",17.62,5.277,48562,None
"461",461,"Cobalt Chrome","2 Axis Cutting",22.72,6.805,48566.4,None
"462",462,"Inconel 718 Plus","Unrestricted",15.52,4.795,55027.2,None
"463",463,"Inconel 718 Plus","Additive",15.36,4.745,55013.4,None
"464",464,"Inconel 718 Plus","Additive",14.85,4.586,55030.3,None
"465",465,"Inconel 718 Plus","Additive",15.27,4.717,55024,None
"466",466,"Inconel 718 Plus","2 Axis Cutting",17.78,5.493,55031.1,None
"467",467,"Stainless Steel 17-4 PH","Unrestricted",17.41,4.906,49716,None
"468",468,"Stainless Steel 17-4 PH","Additive",16.81,4.738,49721.8,None
"469",469,"Stainless Steel 17-4 PH","Additive",16.66,4.696,49727.1,None
"470",470,"Stainless Steel 17-4 PH","Additive",16.69,4.704,49712.8,None
"471",471,"Stainless Steel 17-4 PH","2 Axis Cutting",21.89,6.167,49727.2,None
"472",472,"Stainless Steel 17-4 PH","5 Axis Milling",18.4,5.185,49726.3,None
"473",473,"Titanium 6Al-4V","Unrestricted",8.76,1.402,73137,None
"474",474,"Titanium 6Al-4V","Additive",8.52,1.364,73127.9,None
"475",475,"Titanium 6Al-4V","Additive",8.42,1.348,73135.4,None
"476",476,"Titanium 6Al-4V","Additive",8.93,1.43,73142.5,None
"477",477,"Titanium 6Al-4V","Additive",8.59,1.375,73133.5,None
"478",478,"Titanium 6Al-4V","Additive",8.76,1.402,73141.4,None
"479",479,"Titanium 6Al-4V","Additive",8.62,1.379,73136.6,None
"480",480,"Titanium 6Al-4V","2 Axis Cutting",12.7,2.033,73140.5,None
"481",481,"Titanium 6Al-4V","3 Axis Milling",9.1,1.457,73141.6,None
"482",482,"Titanium 6Al-4V","Die Casting",8.43,1.349,73137.2,None
"483",483,"Inconel 718","Unrestricted",9.93,2.9,63978.5,None
"484",484,"Inconel 718","Additive",9.69,2.832,63977.2,None
"485",485,"Inconel 718","Additive",9.7,2.834,63980.3,None
"486",486,"Inconel 718","Additive",10.49,3.064,63968.6,None
"487",487,"Inconel 718","Additive",9.75,2.847,63980.3,None
"488",488,"Inconel 718","Additive",10.18,2.973,63978.3,None
"489",489,"Inconel 718","Additive",9.86,2.881,63969.1,None
"490",490,"Inconel 718","2 Axis Cutting",13.35,3.899,63982.2,None
"491",491,"Inconel 718","3 Axis Milling",10.03,2.931,63979.3,None
"492",492,"Inconel 718","Die Casting",9.87,2.883,63974.4,None
"493",493,"Inconel 625","Unrestricted",12.02,3.665,53122.1,None
"494",494,"Inconel 625","Additive",11.88,3.621,53121.7,None
"495",495,"Inconel 625","Additive",11.47,3.498,53119.5,None
"496",496,"Inconel 625","Additive",12.47,3.801,53125.2,None
"497",497,"Inconel 625","Additive",11.88,3.624,53124.5,None
"498",498,"Inconel 625","Additive",12.23,3.728,53124.7,None
"499",499,"Inconel 625","Additive",11.96,3.647,53123.5,None
"500",500,"Inconel 625","2 Axis Cutting",15.87,4.84,53123.2,None
"501",501,"Inconel 625","3 Axis Milling",12.01,3.661,53120.6,None
"502",502,"Inconel 625","Die Casting",12.8,3.902,53124.1,None
"503",503,"Cobalt Chrome","Unrestricted",13.38,4.006,48563,None
"504",504,"Cobalt Chrome","Additive",12.91,3.866,48564.6,None
"505",505,"Cobalt Chrome","Additive",13.03,3.901,48566.6,None
"506",506,"Cobalt Chrome","Additive",12.68,3.798,48564.6,None
"507",507,"Cobalt Chrome","Additive",13.18,3.947,48564.7,None
"508",508,"Cobalt Chrome","Additive",13.57,4.066,48561.3,None
"509",509,"Cobalt Chrome","Additive",13.21,3.958,48566.7,None
"510",510,"Cobalt Chrome","2 Axis Cutting",19.98,5.985,48566.9,None
"511",511,"Cobalt Chrome","3 Axis Milling",22.54,6.75,48353.8,None
"512",512,"Stainless Steel 17-4 PH","Unrestricted",12.61,3.553,49725.8,None
"513",513,"Stainless Steel 17-4 PH","Additive",12.58,3.544,49720.4,None
"514",514,"Stainless Steel 17-4 PH","Additive",12.35,3.48,49727.1,None
"515",515,"Stainless Steel 17-4 PH","Additive",13.79,3.885,49725.9,None
"516",516,"Stainless Steel 17-4 PH","Additive",12.85,3.62,49723,None
"517",517,"Stainless Steel 17-4 PH","Additive",13.27,3.74,49726.7,None
"518",518,"Stainless Steel 17-4 PH","Additive",12.64,3.56,49726.9,None
"519",519,"Stainless Steel 17-4 PH","2 Axis Cutting",18.77,5.289,49727,None
"520",520,"Stainless Steel 17-4 PH","3 Axis Milling",22.53,6.348,49467.8,None
"521",521,"Titanium 6Al-4V","Unrestricted",9.31,1.491,73130.3,None
"522",522,"Titanium 6Al-4V","Additive",9.42,1.507,73131.4,None
"523",523,"Titanium 6Al-4V","Additive",9.75,1.561,73137.1,None
"524",524,"Titanium 6Al-4V","Additive",9.28,1.486,73133.9,None
"525",525,"Titanium 6Al-4V","Additive",9.79,1.567,73139.6,None
"526",526,"Titanium 6Al-4V","Additive",8.68,1.388,73142,None
"527",527,"Titanium 6Al-4V","5 Axis Milling",9.64,1.543,73130.5,None
"528",528,"Titanium 6Al-4V","3 Axis Milling",12.61,2.018,73137.4,None
"529",529,"Titanium 6Al-4V","2.5 Axis Milling",12.88,2.061,73139.5,None
"530",530,"Titanium 6Al-4V","2.5 Axis Milling",15.08,2.413,73142.4,None
"531",531,"Titanium 6Al-4V","3 Axis Milling",12.61,2.018,71137.4,None
"532",532,"Titanium 6Al-4V","Die Casting",9.54,1.526,73132.7,None
"533",533,"Inconel 718","Additive",10.6,3.098,63979.3,None
"534",534,"Inconel 718","Additive",10.48,3.062,63981.2,None
"535",535,"Inconel 718","Additive",11.45,3.344,63980.8,None
"536",536,"Inconel 718","Additive",10.45,3.053,63970.1,None
"537",537,"Inconel 718","Additive",11.13,3.252,63975,None
"538",538,"Inconel 718","Additive",9.91,2.894,63981.2,None
"539",539,"Inconel 718","2 Axis Cutting",17.07,4.987,63968.9,None
"540",540,"Inconel 718","5 Axis Milling",10.94,3.196,63970.9,None
"541",541,"Inconel 718","3 Axis Milling",14.15,4.132,63981.8,None
"542",542,"Inconel 718","2.5 Axis Milling",12.96,3.786,63981.8,None
"543",543,"Inconel 718","2.5 Axis Milling",15.76,4.604,63981.2,None
"544",544,"Inconel 718","3 Axis Milling",14.15,4.132,63981.8,None
"545",545,"Inconel 718","Die Casting",10.3,3.01,63974.9,None
"546",546,"Inconel 625","Unrestricted",12.82,3.909,53121.2,None
"547",547,"Inconel 625","Additive",12.79,3.901,53118.2,None
"548",548,"Inconel 625","Additive",12.65,3.857,53120.9,None
"549",549,"Inconel 625","Additive",13.44,4.098,53123.9,None
"550",550,"Inconel 625","Additive",12.65,3.856,53112.2,None
"551",551,"Inconel 625","Additive",13.7,4.177,53123.2,None
"552",552,"Inconel 625","Additive",12.63,3.851,53108.4,None
"553",553,"Inconel 625","2 Axis Cutting",19.22,5.862,53121.1,None
"554",554,"Inconel 625","3 Axis Milling",16.09,4.906,53120.9,None
"555",555,"Inconel 625","2.5 Axis Milling",15.4,4.696,53124.9,None
"556",556,"Inconel 625","2.5 Axis Milling",19.08,5.818,53123.3,None
"557",557,"Inconel 625","3 Axis Milling",16.09,4.906,53120.9,None
"558",558,"Inconel 625","Die Casting",12.83,3.914,53125.2,None
"559",559,"Cobalt Chrome","Unrestricted",13.81,4.137,48565.8,None
"560",560,"Cobalt Chrome","Additive",13.82,4.139,48561.5,None
"561",561,"Cobalt Chrome","Additive",13.57,4.065,48563.3,None
"562",562,"Cobalt Chrome","Additive",14.75,4.417,48565.6,None
"563",563,"Cobalt Chrome","Additive",13.73,4.111,48562.7,None
"564",564,"Cobalt Chrome","Additive",15.23,4.561,48563.5,None
"565",565,"Cobalt Chrome","Additive",14.15,4.237,48559.8,None
"566",566,"Cobalt Chrome","2 Axis Cutting",21.37,6.399,48566,None
"567",567,"Cobalt Chrome","5 Axis Milling",14.04,4.203,48553.3,None
"568",568,"Cobalt Chrome","3 Axis Milling",17.01,5.096,48566.8,None
"569",569,"Cobalt Chrome","2.5 Axis Milling",20.2,6.049,48565.9,None
"570",570,"Cobalt Chrome","2.5 Axis Milling",21.92,6.566,48566.8,None
"571",571,"Cobalt Chrome","3 Axis Milling",17.01,5.096,48566.8,None
"572",572,"Cobalt Chrome","Die Casting",14.73,4.412,48563,None
"573",573,"Stainless Steel 17-4 PH","Unrestricted",13.61,3.835,49724.6,None
"574",574,"Stainless Steel 17-4 PH","Additive",13.49,3.8,49718.1,None
"575",575,"Stainless Steel 17-4 PH","Additive",13.36,3.764,49726.2,None
"576",576,"Stainless Steel 17-4 PH","Additive",14.09,3.972,49726.1,None
"577",577,"Stainless Steel 17-4 PH","Additive",13.43,3.784,49719.8,None
"578",578,"Stainless Steel 17-4 PH","Additive",14.79,4.169,49726.5,None
"579",579,"Stainless Steel 17-4 PH","Additive",13.5,3.804,49725.6,None
"580",580,"Stainless Steel 17-4 PH","2 Axis Cutting",20.94,5.9,49719.5,None
"581",581,"Stainless Steel 17-4 PH","5 Axis Milling",13.66,3.85,49724.7,None
"582",582,"Stainless Steel 17-4 PH","3 Axis Milling",16.56,4.666,49725.9,None
"583",583,"Stainless Steel 17-4 PH","2.5 Axis Milling",17.43,4.912,49726.7,None
"584",584,"Stainless Steel 17-4 PH","2.5 Axis Milling",21.07,5.937,49726.2,None
"585",585,"Stainless Steel 17-4 PH","3 Axis Milling",16.56,4.666,49725.9,None
"586",586,"Stainless Steel 17-4 PH","Die Casting",14.01,3.949,49710.5,None
"587",587,"Iron, Malleable","Unrestricted",17.23,4.45,37866.6,None
"588",588,"Iron, Malleable","Additive",18.66,4.82,37860.3,None
"589",589,"Iron, Malleable","Additive",18.1,4.675,37863.4,None
"590",590,"Iron, Malleable","Additive",20.98,5.42,37866.1,None
"591",591,"Iron, Malleable","Additive",19.07,4.925,37864.5,None
"592",592,"Iron, Malleable","Additive",20.49,5.294,37865.8,None
"593",593,"Iron, Malleable","Additive",18.28,4.721,37865.8,None
"594",594,"Iron, Malleable","5 Axis Milling",25.89,6.688,37864.1,None
"595",595,"Iron, Malleable","3 Axis Milling",35.21,9.096,37864.5,None
"596",596,"Iron, Malleable","3 Axis Milling",35.21,9.096,37864.5,None
"597",597,"Iron, Malleable","Die Casting",21.12,5.455,37861.6,None
"598",598,"Titanium 6Al-4V","Unrestricted",10.08,1.613,61183.9,None
"599",599,"Titanium 6Al-4V","Additive",9.68,1.55,69185.1,None
"600",600,"Titanium 6Al-4V","Additive",9.8,1.568,69184.5,None
"601",601,"Titanium 6Al-4V","Additive",10.36,1.658,69187.9,None
"602",602,"Titanium 6Al-4V","Additive",9.71,1.554,69179,None
"603",603,"Titanium 6Al-4V","Additive",10.35,1.656,69179,None
"604",604,"Titanium 6Al-4V","Additive",9.22,1.475,69188.2,None
"605",605,"Titanium 6Al-4V","5 Axis Milling",10.08,1.614,69185.7,None
"606",606,"Titanium 6Al-4V","3 Axis Milling",13.27,2.123,69168.7,None
"607",607,"Titanium 6Al-4V","2.5 Axis Milling",13.02,2.084,69175.6,None
"608",608,"Titanium 6Al-4V","2.5 Axis Milling",15.36,2.459,69185.5,None
"609",609,"Titanium 6Al-4V","3 Axis Milling",13.27,2.123,69168.7,None
"610",610,"Titanium 6Al-4V","Die Casting",10.15,1.625,69164.6,None
"611",611,"Inconel 718","Unrestricted",11.31,3.305,60523.7,None
"612",612,"Inconel 718","Additive",11.28,3.296,60519.8,None
"613",613,"Inconel 718","Additive",11.03,3.221,60515.5,None
"614",614,"Inconel 718","Additive",11.36,3.32,60523.3,None
"615",615,"Inconel 718","Additive",11.3,3.301,60521,None
"616",616,"Inconel 718","Additive",11.99,3.503,60516.2,None
"617",617,"Inconel 718","Additive",10.54,3.079,60523.3,None
"618",618,"Inconel 718","2 Axis Cutting",17.55,5.128,60521.8,None
"619",619,"Inconel 718","5 Axis Milling",11.5,3.361,60523.3,None
"620",620,"Inconel 718","3 Axis Milling",14.61,4.267,60522.4,None
"621",621,"Inconel 718","2.5 Axis Milling",13.43,3.923,60523.7,None
"622",622,"Inconel 718","2.5 Axis Milling",17.13,5.004,60522.5,None
"623",623,"Inconel 718","3 Axis Milling",14.61,4.267,60522.4,None
"624",624,"Inconel 718","Die Casting",11.28,3.296,60521.1,None
"625",625,"Inconel 625","Unrestricted",13.43,4.096,50251.1,None
"626",626,"Inconel 625","Additive",13.3,4.056,50249.2,None
"627",627,"Inconel 625","Additive",13.34,4.067,50250.6,None
"628",628,"Inconel 625","Additive",15.54,4.739,50253.4,None
"629",629,"Inconel 625","Additive",13.26,4.045,50252.8,None
"630",630,"Inconel 625","Additive",13.55,4.132,50247.4,None
"631",631,"Inconel 625","5 Axis Milling",13.67,4.167,50250.9,None
"632",632,"Inconel 625","3 Axis Milling",16.64,5.074,50249.9,None
"633",633,"Inconel 625","2.5 Axis Milling",16.76,5.11,50248.3,None
"634",634,"Inconel 625","2.5 Axis Milling",21.09,6.432,50250.9,None
"635",635,"Inconel 625","3 Axis Milling",16.64,5.074,50249.9,None
"636",636,"Inconel 625","Die Casting",13.84,4.221,50246.2,None
"637",637,"Cobalt Chrome","Unrestricted",14.58,4.366,45913.8,None
"638",638,"Cobalt Chrome","Additive",14.59,4.37,45938.1,None
"639",639,"Cobalt Chrome","Additive",14.68,4.396,45940.7,None
"640",640,"Cobalt Chrome","Additive",16.91,5.064,45937.5,None
"641",641,"Cobalt Chrome","Additive",14.57,4.364,45935.4,None
"642",642,"Cobalt Chrome","Additive",16.3,4.883,45941.2,None
"643",643,"Cobalt Chrome","Additive",14.93,4.472,45937.2,None
"644",644,"Cobalt Chrome","2 Axis Cutting",23.56,7.057,45940.5,None
"645",645,"Cobalt Chrome","5 Axis Milling",14.83,4.441,45934.5,None
"646",646,"Cobalt Chrome","3 Axis Milling",30.97,9.275,45938.5,None
"647",647,"Cobalt Chrome","2.5 Axis Milling",27.95,8.37,45939.6,None
"648",648,"Cobalt Chrome","2.5 Axis Milling",27.14,8.129,45941,None
"649",649,"Cobalt Chrome","3 Axis Milling",30.97,9.275,45938.5,None
"650",650,"Stainless Steel 17-4 PH","Unrestricted",14.2,4.003,47038.7,None
"651",651,"Stainless Steel 17-4 PH","Additive",14.45,4.071,47037.4,None
"652",652,"Stainless Steel 17-4 PH","Additive",14.24,4.013,47034.1,None
"653",653,"Stainless Steel 17-4 PH","Additive",16.2,4.565,47035.1,None
"654",654,"Stainless Steel 17-4 PH","Additive",14.25,4.016,47031.7,None
"655",655,"Stainless Steel 17-4 PH","Additive",15.66,4.413,47028.6,None
"656",656,"Stainless Steel 17-4 PH","Additive",14.59,4.11,47038.9,None
"657",657,"Stainless Steel 17-4 PH","2 Axis Cutting",22.71,6.398,47039.2,None
"658",658,"Stainless Steel 17-4 PH","5 Axis Milling",14.32,4.036,47036.8,None
"659",659,"Stainless Steel 17-4 PH","3 Axis Milling",17.42,4.91,47033.7,None
"660",660,"Stainless Steel 17-4 PH","2.5 Axis Milling",22.49,6.336,47036.1,None
"661",661,"Stainless Steel 17-4 PH","2.5 Axis Milling",24.86,7.005,47038.9,None
"662",662,"Stainless Steel 17-4 PH","3 Axis Milling",17.42,4.91,47033.7,None
"663",663,"Iron, Malleable","Unrestricted",29.55,7.634,32581.7,None
"664",664,"Iron, Malleable","Additive",25.47,6.578,32582.4,None
"665",665,"Iron, Malleable","Additive",23.38,6.04,32581.8,None
"666",666,"Iron, Malleable","Additive",24.59,6.353,32582.7,None
"667",667,"Iron, Malleable","Additive",25.14,6.495,32582.3,None
"668",668,"Iron, Malleable","Additive",26.04,6.726,32582.2,None
"669",669,"Iron, Malleable","Additive",26.37,6.812,32579.5,None
"670",670,"Iron, Malleable","5 Axis Milling",35.06,9.056,32581.9,None
"671",671,"Iron, Malleable","3 Axis Milling",40.76,10.53,32581.5,None
"672",672,"Iron, Malleable","3 Axis Milling",40.76,10.53,32581.5,None
"673",673,"Iron, Malleable","Die Casting",33.74,8.716,32582.8,None
"674",674,"Titanium 6Al-4V","Unrestricted",11.39,1.824,59534.3,None
"675",675,"Titanium 6Al-4V","Additive",11.44,1.832,59531.7,None
"676",676,"Titanium 6Al-4V","Additive",11.03,1.765,59508.4,None
"677",677,"Titanium 6Al-4V","Additive",12.62,2.02,59533.7,None
"678",678,"Titanium 6Al-4V","Additive",11.23,1.797,59532.8,None
"679",679,"Titanium 6Al-4V","Additive",12.18,1.949,59508.7,None
"680",680,"Titanium 6Al-4V","Additive",10.76,1.722,59523.5,None
"681",681,"Titanium 6Al-4V","2 Axis Cutting",17.55,2.809,59533.8,None
"682",682,"Titanium 6Al-4V","5 Axis Milling",11.62,1.86,59529.4,None
"683",683,"Titanium 6Al-4V","3 Axis Milling",14.72,2.356,59533.4,None
"684",684,"Titanium 6Al-4V","2.5 Axis Milling",13.76,2.202,59528.6,None
"685",685,"Titanium 6Al-4V","2.5 Axis Milling",33.42,5.349,59530,None
"686",686,"Titanium 6Al-4V","Die Casting",10.99,1.759,59534.2,None
"687",687,"Inconel 718","Unrestricted",13.09,3.825,52078.1,None
"688",688,"Inconel 718","Additive",12.86,3.757,52077.7,None
"689",689,"Inconel 718","Additive",12.86,3.756,52074.7,None
"690",690,"Inconel 718","Additive",13.46,3.931,52075.6,None
"691",691,"Inconel 718","Additive",12.85,3.753,52075.1,None
"692",692,"Inconel 718","Additive",33.21,9.703,52068.9,None
"693",693,"Inconel 718","Additive",12.99,3.795,52074.9,None
"694",694,"Inconel 718","2 Axis Cutting",19.44,5.68,52078.4,None
"695",695,"Inconel 718","5 Axis Milling",13.16,3.844,52076.3,None
"696",696,"Inconel 718","3 Axis Milling",15.81,4.619,52072.8,None
"697",697,"Inconel 718","2.5 Axis Milling",15.51,4.53,52077.3,None
"698",698,"Inconel 718","2.5 Axis Milling",20.04,5.853,52070.1,None
"699",699,"Inconel 718","3 Axis Milling",15.81,4.619,52072.8,None
"700",700,"Inconel 718","Die Casting",13.25,3.872,52075.6,None
"701",701,"Inconel 625","Additive",14.79,4.51,43241.2,None
"702",702,"Inconel 625","Additive",14.94,4.557,43240.8,None
"703",703,"Inconel 625","Additive",14.41,4.394,43232.7,None
"704",704,"Inconel 625","Additive",15.82,4.824,43233.7,None
"705",705,"Inconel 625","Additive",17.09,5.212,43241.1,None
"706",706,"Inconel 625","Additive",15.83,4.827,43235.9,None
"707",707,"Inconel 625","2 Axis Cutting",27.63,8.426,43240,None
"708",708,"Inconel 625","5 Axis Milling",15.69,4.786,43240.7,None
"709",709,"Inconel 625","3 Axis Milling",31.86,9.715,43241,None
"710",710,"Inconel 625","2.5 Axis Milling",43.35,13.219,43233.6,None
"711",711,"Inconel 625","2.5 Axis Milling",38.12,11.622,43238.8,None
"712",712,"Inconel 625","3 Axis Milling",31.86,9.715,43241,None
"713",713,"Inconel 625","Die Casting",17.24,5.258,43240.8,None
"714",714,"Cobalt Chrome","Unrestricted",16.14,4.833,39530.8,None
"715",715,"Cobalt Chrome","Additive",16.55,4.957,39530.8,None
"716",716,"Cobalt Chrome","Additive",20.14,6.032,39531.1,None
"717",717,"Cobalt Chrome","Additive",16.66,4.989,39530.2,None
"718",718,"Cobalt Chrome","Additive",19.41,5.814,39530.7,None
"719",719,"Cobalt Chrome","Additive",17.52,5.246,39530.3,None
"720",720,"Cobalt Chrome","2 Axis Cutting",36.87,11.043,39529,None
"721",721,"Cobalt Chrome","5 Axis Milling",25.62,7.673,39527.6,None
"722",722,"Cobalt Chrome","3 Axis Milling",33.92,10.16,39525.9,None
"723",723,"Cobalt Chrome","3 Axis Milling",33.92,10.16,39525.9,None
"724",724,"Cobalt Chrome","Die Casting",19.51,5.842,39529.1,None
"725",725,"Stainless Steel 17-4 PH","Unrestricted",15.33,4.319,40474.2,None
"726",726,"Stainless Steel 17-4 PH","Additive",15.96,4.498,40474.6,None
"727",727,"Stainless Steel 17-4 PH","Additive",17.3,4.876,40474.9,None
"728",728,"Stainless Steel 17-4 PH","Additive",19.63,5.532,40475.1,None
"729",729,"Stainless Steel 17-4 PH","Additive",15.81,4.456,40469,None
"730",730,"Stainless Steel 17-4 PH","Additive",19.9,5.608,40469.8,None
"731",731,"Stainless Steel 17-4 PH","Additive",16.66,4.694,40475.5,None
"732",732,"Stainless Steel 17-4 PH","2 Axis Cutting",31.79,8.957,40474.5,None
"733",733,"Stainless Steel 17-4 PH","5 Axis Milling",16.45,4.637,40473.1,None
"734",734,"Stainless Steel 17-4 PH","3 Axis Milling",33.26,9.373,40470.6,None
"735",735,"Stainless Steel 17-4 PH","3 Axis Milling",33.26,9.373,40470.6,None
"736",736,"Stainless Steel 17-4 PH","Die Casting",18.88,5.32,40472.5,None
"737",737,"Iron, Malleable","Additive",19.57,5.055,35924.1,None
"738",738,"Iron, Malleable","Additive",19.36,5.001,35923.9,None
"739",739,"Iron, Malleable","Additive",22.59,5.836,35923.8,None
"740",740,"Iron, Malleable","Additive",19.8,5.114,35924.4,None
"741",741,"Iron, Malleable","Additive",22.5,5.812,35918.5,None
"742",742,"Iron, Malleable","Additive",20.88,5.392,35923.6,None
"743",743,"Iron, Malleable","5 Axis Milling",17.51,4.524,35923,None
"744",744,"Iron, Malleable","3 Axis Milling",36.92,9.537,35917.8,None
"745",745,"Iron, Malleable","3 Axis Milling",36.92,9.537,35917.8,None
"746",746,"Iron, Malleable","Die Casting",23.77,6.141,35924.4,None
"747",747,"Stainless Steel AISI 440C, Welded","Unrestricted",13.29,3.746,51246.2,None
"748",748,"Stainless Steel AISI 440C, Welded","Additive",12.62,3.556,51243.5,None
"749",749,"Stainless Steel AISI 440C, Welded","Additive",12.99,3.66,51246.6,None
"750",750,"Stainless Steel AISI 440C, Welded","Additive",14.23,4.01,51242.9,None
"751",751,"Stainless Steel AISI 440C, Welded","Additive",13.03,3.671,51246.4,None
"752",752,"Stainless Steel AISI 440C, Welded","Additive",14.34,4.042,51243.8,None
"753",753,"Stainless Steel AISI 440C, Welded","Additive",13.23,3.729,51245,None
"754",754,"Stainless Steel AISI 440C, Welded","5 Axis Milling",13.33,3.755,51243.8,None
"755",755,"Stainless Steel AISI 440C, Welded","3 Axis Milling",16.49,4.648,51246.2,None
"756",756,"Stainless Steel AISI 440C, Welded","2.5 Axis Milling",16.1,4.537,51246.3,None
"757",757,"Stainless Steel AISI 440C, Welded","2.5 Axis Milling",20.31,5.723,51238.5,None
"758",758,"Stainless Steel AISI 440C, Welded","3 Axis Milling",16.49,4.648,51246.2,None
"759",759,"Stainless Steel AISI 440C, Welded","Die Casting",13.63,3.842,51244,None
"760",760,"Titanium 6Al-4V","Unrestricted",10.36,1.658,65637.4,None
"761",761,"Titanium 6Al-4V","Additive",10.25,1.64,65632.2,None
"762",762,"Titanium 6Al-4V","Additive",10.24,1.638,65640.7,None
"763",763,"Titanium 6Al-4V","Additive",11.15,1.785,65639.6,None
"764",764,"Titanium 6Al-4V","Additive",10.19,1.63,65638.4,None
"765",765,"Titanium 6Al-4V","Additive",11.03,1.765,65638.5,None
"766",766,"Titanium 6Al-4V","Additive",9.96,1.594,65637,None
"767",767,"Titanium 6Al-4V","5 Axis Milling",10.75,1.72,65638.1,None
"768",768,"Titanium 6Al-4V","3 Axis Milling",13.9,2.225,65638.9,None
"769",769,"Titanium 6Al-4V","2.5 Axis Milling",12.76,2.043,65637.2,None
"770",770,"Titanium 6Al-4V","2.5 Axis Milling",15.66,2.506,65639.6,None
"771",771,"Titanium 6Al-4V","3 Axis Milling",13.9,2.225,65638.9,None
"772",772,"Titanium 6Al-4V","Die Casting",10.21,1.634,65626.7,None
"773",773,"Inconel 718","Unrestricted",11.89,3.474,57409.6,None
"774",774,"Inconel 718","Additive",11.86,3.466,57413.7,None
"775",775,"Inconel 718","Additive",11.54,3.372,57406.1,None
"776",776,"Inconel 718","Additive",13.1,3.826,57415.9,None
"777",777,"Inconel 718","Additive",11.64,3.4,57419.5,None
"778",778,"Inconel 718","Additive",12.49,3.649,57403.2,None
"779",779,"Inconel 718","Additive",11.63,3.397,57419.6,None
"780",780,"Inconel 718","2 Axis Cutting",18.21,5.32,57419.1,None
"781",781,"Inconel 718","5 Axis Milling",12.26,3.58,57415.4,None
"782",782,"Inconel 718","3 Axis Milling",15.23,4.449,57410.6,None
"783",783,"Inconel 718","2.5 Axis Milling",14.11,4.122,57418,None
"784",784,"Inconel 718","3 Axis Milling",15.23,4.449,57410.6,None
"785",785,"Inconel 718","Die Casting",11.65,3.404,57417.2,None
"786",786,"Inconel 625","Unrestricted",13.96,4.257,47671.4,None
"787",787,"Inconel 625","Additive",13.97,4.261,47675.6,None
"788",788,"Inconel 625","Additive",13.98,4.263,47675.6,None
"789",789,"Inconel 625","Additive",15.36,4.683,47675.6,None
"790",790,"Inconel 625","Additive",14.24,4.343,47665.2,None
"791",791,"Inconel 625","Additive",15.56,4.746,47675,None
"792",792,"Inconel 625","5 Axis Milling",14.09,4.297,47674.8,None
"793",793,"Inconel 625","3 Axis Milling",17.43,5.315,47675.5,None
"794",794,"Inconel 625","2.5 Axis Milling",21.71,6.621,47672.9,None
"795",795,"Inconel 625","3 Axis Milling",17.43,5.315,47675.5,None
"796",796,"Cobalt Chrome","Unrestricted",13.73,4.113,43583.8,None
"797",797,"Cobalt Chrome","Additive",14.78,4.426,43579.3,None
"798",798,"Cobalt Chrome","Additive",15.66,4.689,43580.1,None
"799",799,"Cobalt Chrome","Additive",18.17,5.441,43585.2,None
"800",800,"Cobalt Chrome","Additive",15.57,4.664,43581.7,None
"801",801,"Cobalt Chrome","Additive",17.43,5.219,43583.6,None
"802",802,"Cobalt Chrome","2 Axis Cutting",27.73,8.306,43585.4,None
"803",803,"Cobalt Chrome","2.5 Axis Milling",40.67,12.18,43584.1,None
"804",804,"Cobalt Chrome","2.5 Axis Milling",38.24,11.454,43584.6,None
"805",805,"Cobalt Chrome","3 Axis Milling",31.78,9.517,43580,None
"806",806,"Cobalt Chrome","Die Casting",17.12,5.128,43585.7,None
"807",807,"Stainless Steel 17-4 PH","Unrestricted",13.62,3.839,44624.9,None
"808",808,"Stainless Steel 17-4 PH","Additive",15.24,4.293,44623.1,None
"809",809,"Stainless Steel 17-4 PH","Additive",15.23,4.291,44625.9,None
"810",810,"Stainless Steel 17-4 PH","Additive",14.2,4.001,44616.3,None
"811",811,"Stainless Steel 17-4 PH","Additive",15.16,4.272,44623.7,None
"812",812,"Stainless Steel 17-4 PH","Additive",16.53,4.658,44626.5,None
"813",813,"Stainless Steel 17-4 PH","Additive",15.39,4.336,44624.2,None
"814",814,"Stainless Steel 17-4 PH","2 Axis Cutting",26.32,7.418,44626.3,None
"815",815,"Stainless Steel 17-4 PH","3 Axis Milling",31.15,8.779,44602.6,None
"816",816,"Stainless Steel 17-4 PH","2.5 Axis Milling",35.76,10.076,44626.6,None
"817",817,"Stainless Steel 17-4 PH","2.5 Axis Milling",38.24,10.777,44624.7,None
"818",818,"Stainless Steel 17-4 PH","3 Axis Milling",31.15,8.779,44602.6,None
"819",819,"Stainless Steel 17-4 PH","Die Casting",16.38,4.616,44626.7,None
"820",820,"Iron, Malleable","Unrestricted",22.05,5.696,34171.7,None
"821",821,"Iron, Malleable","Additive",23.45,6.057,34169.6,None
"822",822,"Iron, Malleable","Additive",21.13,5.457,34171.8,None
"823",823,"Iron, Malleable","Additive",23.37,6.037,34168.9,None
"824",824,"Iron, Malleable","Additive",23.49,6.068,34169.1,None
"825",825,"Iron, Malleable","Additive",24.04,6.209,34171.7,None
"826",826,"Iron, Malleable","Additive",21.35,5.516,34169.3,None
"827",827,"Iron, Malleable","5 Axis Milling",27.91,7.209,34168.1,None
"828",828,"Iron, Malleable","3 Axis Milling",38.72,10.002,34170.6,None
"829",829,"Iron, Malleable","3 Axis Milling",38.72,10.002,34170.6,None
"830",830,"Iron, Malleable","Die Casting",27.84,7.192,34168.2,None
"831",831,"Stainless Steel AISI 440C, Welded","Unrestricted",13.92,3.922,48745.2,None
"832",832,"Stainless Steel AISI 440C, Welded","Additive",13.86,3.907,48735.7,None
"833",833,"Stainless Steel AISI 440C, Welded","Additive",13.67,3.853,48741,None
"834",834,"Stainless Steel AISI 440C, Welded","Additive",14.46,4.074,48735.3,None
"835",835,"Stainless Steel AISI 440C, Welded","Additive",13.78,3.883,48744.8,None
"836",836,"Stainless Steel AISI 440C, Welded","Additive",15.31,4.314,48741.1,None
"837",837,"Stainless Steel AISI 440C, Welded","Additive",14.06,3.963,48743.8,None
"838",838,"Stainless Steel AISI 440C, Welded","2 Axis Cutting",21.22,5.978,48744.3,None
"839",839,"Stainless Steel AISI 440C, Welded","5 Axis Milling",14.06,3.961,48740.9,None
"840",840,"Stainless Steel AISI 440C, Welded","3 Axis Milling",16.88,4.757,48744.5,None
"841",841,"Stainless Steel AISI 440C, Welded","2.5 Axis Milling",19.49,5.492,48740.8,None
"842",842,"Stainless Steel AISI 440C, Welded","2.5 Axis Milling",21.66,6.104,48746.1,None
"843",843,"Stainless Steel AISI 440C, Welded","3 Axis Milling",16.88,4.757,48744.5,None
"844",844,"Titanium 6Al-4V","Unrestricted",10.92,1.748,62431.9,None
"845",845,"Titanium 6Al-4V","Additive",10.6,1.696,62429.2,None
"846",846,"Titanium 6Al-4V","Additive",10.71,1.714,62437.4,None
"847",847,"Titanium 6Al-4V","Additive",11.36,1.818,62435.7,None
"848",848,"Titanium 6Al-4V","Additive",10.69,1.71,62436.2,None
"849",849,"Titanium 6Al-4V","Additive",11.48,1.837,62433.6,None
"850",850,"Titanium 6Al-4V","Additive",10.09,1.615,62436,None
"851",851,"Titanium 6Al-4V","2 Axis Cutting",17.18,2.75,62428.8,None
"852",852,"Titanium 6Al-4V","5 Axis Milling",11.07,1.772,62438.6,None
"853",853,"Titanium 6Al-4V","3 Axis Milling",14.45,2.313,62436.4,None
"854",854,"Titanium 6Al-4V","2.5 Axis Milling",13.23,2.117,62430.6,None
"855",855,"Titanium 6Al-4V","2.5 Axis Milling",15.96,2.555,62438.3,None
"856",856,"Titanium 6Al-4V","3 Axis Milling",14.45,2.313,62436.4,None
"857",857,"Titanium 6Al-4V","Die Casting",10.4,1.665,62419.2,None
"858",858,"Inconel 718","Unrestricted",12.45,3.637,54616.6,None
"859",859,"Inconel 718","Additive",12.37,3.615,54615.7,None
"860",860,"Inconel 718","Additive",12.1,3.535,54616.4,None
"861",861,"Inconel 718","Additive",13.83,4.041,54615.4,None
"862",862,"Inconel 718","Additive",12.24,3.575,54612.8,None
"863",863,"Inconel 718","Additive",13.3,3.884,54615.5,None
"864",864,"Inconel 718","Additive",12.18,3.558,54617.4,None
"865",865,"Inconel 718","2 Axis Cutting",18.82,5.498,54617.2,None
"866",866,"Inconel 718","5 Axis Milling",12.71,3.712,54613.2,None
"867",867,"Inconel 718","3 Axis Milling",15.47,4.518,54607.9,None
"868",868,"Inconel 718","2.5 Axis Milling",14.84,4.336,54610.7,None
"869",869,"Inconel 718","3 Axis Milling",15.47,4.518,54607.9,None
"870",870,"Inconel 718","Die Casting",12.3,3.594,54614.1,None
"871",871,"Cobalt Chrome","Unrestricted",14.88,4.455,41457.8,None
"872",872,"Cobalt Chrome","Additive",16.68,4.996,41455.7,None
"873",873,"Cobalt Chrome","Additive",16.74,5.012,41458.7,None
"874",874,"Cobalt Chrome","Additive",15.41,4.614,41459.2,None
"875",875,"Cobalt Chrome","Additive",16.64,4.984,41459.5,None
"876",876,"Cobalt Chrome","Additive",18.71,5.603,41457.9,None
"877",877,"Cobalt Chrome","Additive",16.48,4.935,41459.5,None
"878",878,"Cobalt Chrome","2 Axis Cutting",28.56,8.552,41456.4,None
"879",879,"Cobalt Chrome","5 Axis Milling",24.8,7.428,41457,None
"880",880,"Cobalt Chrome","3 Axis Milling",32.72,9.799,41455.5,None
"881",881,"Cobalt Chrome","3 Axis Milling",32.72,9.799,41455.5,None
"882",882,"Cobalt Chrome","Die Casting",18.01,5.394,41459.4,None
"883",883,"Stainless Steel 17-4 PH","Unrestricted",14.37,4.048,42448.5,None
"884",884,"Stainless Steel 17-4 PH","Additive",16.14,4.547,42449.5,None
"885",885,"Stainless Steel 17-4 PH","Additive",16.25,4.579,42447.1,None
"886",886,"Stainless Steel 17-4 PH","Additive",18.25,5.144,42444.4,None
"887",887,"Stainless Steel 17-4 PH","Additive",16.11,4.54,42446.9,None
"888",888,"Stainless Steel 17-4 PH","Additive",17.46,4.921,42449.5,None
"889",889,"Stainless Steel 17-4 PH","Additive",16.01,4.512,42449.4,None
"890",890,"Stainless Steel 17-4 PH","2 Axis Cutting",27.14,7.647,42446.2,None
"891",891,"Stainless Steel 17-4 PH","5 Axis Milling",15.22,4.29,42448.5,None
"892",892,"Stainless Steel 17-4 PH","3 Axis Milling",32.48,9.152,42446.1,None
"893",893,"Stainless Steel 17-4 PH","2.5 Axis Milling",40.98,11.548,42448.7,None
"894",894,"Stainless Steel 17-4 PH","3 Axis Milling",32.48,9.152,42446.1,None
"895",895,"Stainless Steel 17-4 PH","Die Casting",17.68,4.983,42447,None
"896",896,"Iron, Malleable","Unrestricted",35.3,9.118,31132.5,None
"897",897,"Iron, Malleable","Additive",27.32,7.058,31134.3,None
"898",898,"Iron, Malleable","Additive",26.41,6.822,31134.1,None
"899",899,"Iron, Malleable","Additive",27.42,7.083,31134.5,None
"900",900,"Iron, Malleable","Additive",26.81,6.926,31131.9,None
"901",901,"Iron, Malleable","Additive",28.85,7.451,31133.7,None
"902",902,"Iron, Malleable","Additive",27.44,7.088,31134.2,None
"903",903,"Iron, Malleable","5 Axis Milling",24.21,6.253,31133.2,None
"904",904,"Iron, Malleable","3 Axis Milling",43.26,11.175,31134.5,None
"905",905,"Iron, Malleable","3 Axis Milling",43.26,11.175,31134.5,None
"906",906,"Iron, Malleable","Die Casting",39.85,10.293,31134.6,None
"907",907,"Stainless Steel AISI 440C, Welded","Unrestricted",13.69,3.857,44412.4,None
"908",908,"Stainless Steel AISI 440C, Welded","Additive",14.4,4.059,44408,None
"909",909,"Stainless Steel AISI 440C, Welded","Additive",15.27,4.303,44413.6,None
"910",910,"Stainless Steel AISI 440C, Welded","Additive",14.14,3.984,44410.4,None
"911",911,"Stainless Steel AISI 440C, Welded","Additive",15.24,4.294,44410.9,None
"912",912,"Stainless Steel AISI 440C, Welded","Additive",16.61,4.68,44411.1,None
"913",913,"Stainless Steel AISI 440C, Welded","Additive",15.51,4.369,44413.2,None
"914",914,"Stainless Steel AISI 440C, Welded","2 Axis Cutting",26.46,7.456,44410.3,None
"915",915,"Stainless Steel AISI 440C, Welded","5 Axis Milling",15.13,4.263,44412.8,None
"916",916,"Stainless Steel AISI 440C, Welded","3 Axis Milling",31.52,8.883,44397.8,None
"917",917,"Stainless Steel AISI 440C, Welded","2.5 Axis Milling",34.4,9.693,44405.4,None
"918",918,"Stainless Steel AISI 440C, Welded","2.5 Axis Milling",38.28,10.788,44412.5,None
"919",919,"Stainless Steel AISI 440C, Welded","3 Axis Milling",31.52,8.883,44397.8,None
"920",920,"Stainless Steel AISI 440C, Welded","Die Casting",16.42,4.628,44412,None
"921",921,"Titanium 6Al-4V","Unrestricted",11.93,1.91,56888.6,None
"922",922,"Titanium 6Al-4V","Additive",11.73,1.877,56885,None
"923",923,"Titanium 6Al-4V","Additive",11.63,1.862,56887.4,None
"924",924,"Titanium 6Al-4V","Additive",12.57,2.012,56885.5,None
"925",925,"Titanium 6Al-4V","Additive",11.69,1.87,56876.8,None
"926",926,"Titanium 6Al-4V","Additive",12.62,2.02,56885.1,None
"927",927,"Titanium 6Al-4V","Additive",11.24,1.799,56887.1,None
"928",928,"Titanium 6Al-4V","2 Axis Cutting",18.14,2.903,56887,None
"929",929,"Titanium 6Al-4V","5 Axis Milling",12.12,1.94,56879.1,None
"930",930,"Titanium 6Al-4V","3 Axis Milling",15.03,2.406,56885.6,None
"931",931,"Titanium 6Al-4V","2.5 Axis Milling",14.21,2.275,56873.1,None
"932",932,"Titanium 6Al-4V","2.5 Axis Milling",17.81,2.851,56888.6,None
"933",933,"Titanium 6Al-4V","3 Axis Milling",15.03,2.406,56885.6,None
"934",934,"Titanium 6Al-4V","Die Casting",11.51,1.842,56871.4,None
"935",935,"Inconel 718","Unrestricted",13.54,3.955,49760.7,None
"936",936,"Inconel 718","Additive",13.42,3.921,49757.8,None
"937",937,"Inconel 718","Additive",13.35,3.9,49760.7,None
"938",938,"Inconel 718","Additive",14.09,4.117,49760.2,None
"939",939,"Inconel 718","Additive",13.45,3.928,49763.2,None
"940",940,"Inconel 718","Additive",14.79,4.321,49763.7,None
"941",941,"Inconel 718","Additive",13.46,3.931,49755.1,None
"942",942,"Inconel 718","2 Axis Cutting",20.81,6.08,49764,None
"943",943,"Inconel 718","5 Axis Milling",13.65,3.988,49761.4,None
"944",944,"Inconel 718","3 Axis Milling",16.96,4.954,49762.3,None
"945",945,"Inconel 718","2.5 Axis Milling",17.38,5.076,49763,None
"946",946,"Inconel 718","2.5 Axis Milling",21.11,6.167,49762.2,None
"947",947,"Inconel 718","3 Axis Milling",16.96,4.954,49762.3,None
"948",948,"Inconel 718","Die Casting",14.11,4.122,49762.4,None
"949",949,"Inconel 625","Unrestricted",14.89,4.542,41319,None
"950",950,"Inconel 625","Additive",15.85,4.834,41318.9,None
"951",951,"Inconel 625","Additive",16.81,5.126,41319.6,None
"952",952,"Inconel 625","Additive",15.28,4.659,41315.9,None
"953",953,"Inconel 625","Additive",15.6,4.757,41308.4,None
"954",954,"Inconel 625","Additive",18.78,5.726,41318.2,None
"955",955,"Inconel 625","Additive",16.47,5.023,41318.5,None
"956",956,"Inconel 625","2 Axis Cutting",29.31,8.937,41317.8,None
"957",957,"Inconel 625","5 Axis Milling",24.8,7.561,41300.6,None
"958",958,"Inconel 625","3 Axis Milling",32.9,10.031,41317.7,None
"959",959,"Inconel 625","3 Axis Milling",32.9,10.031,41317.7,None
"960",960,"Cobalt Chrome","Unrestricted",18.7,5.602,37769.9,None
"961",961,"Cobalt Chrome","Additive",18.88,5.654,37767.6,None
"962",962,"Cobalt Chrome","Additive",18.14,5.431,37773.9,None
"963",963,"Cobalt Chrome","Additive",17.5,5.242,37769.1,None
"964",964,"Cobalt Chrome","Additive",19.68,5.894,37773.4,None
"965",965,"Cobalt Chrome","Additive",20.47,6.13,37773.7,None
"966",966,"Cobalt Chrome","Additive",18.89,5.658,37774,None
"967",967,"Cobalt Chrome","2 Axis Cutting",50.66,15.171,37771.1,None
"968",968,"Cobalt Chrome","5 Axis Milling",17.96,5.378,37773.5,None
"969",969,"Cobalt Chrome","3 Axis Milling",35.25,10.556,37768.2,None
"970",970,"Cobalt Chrome","3 Axis Milling",35.25,10.556,37768.2,None
"971",971,"Cobalt Chrome","Die Casting",21.26,6.367,37773.3,None
"972",972,"Iron, Cast","Unrestricted",12.38,3.199,54969.2,None
"973",973,"Iron, Cast","Additive",11.94,3.084,54965.5,None
"974",974,"Iron, Cast","Additive",11.26,2.908,54959,None
"975",975,"Iron, Cast","Additive",13.38,3.457,54966.5,None
"976",976,"Aluminum 7175 T73 0 Hot Formed","Unrestricted",29.97,3.032,32415,None
"977",977,"Aluminum 7175 T73 0 Hot Formed","Additive",25.26,2.555,32414.8,None
"978",978,"Aluminum 7175 T73 0 Hot Formed","Additive",22.8,2.306,32415.6,None
"979",979,"Aluminum 7175 T73 0 Hot Formed","Additive",24.65,2.494,32413.8,None
"980",980,"Inconel 718","Unrestricted",9.17,2.678,89572.1,None
"981",981,"Inconel 718","Additive",8.5,2.482,89560,None
"982",982,"Inconel 718","Additive",8.59,2.509,89568.3,None
"983",983,"Inconel 718","Additive",9.04,2.64,89564.4,None
"984",984,"Inconel 625","Unrestricted",10.91,3.325,74374.2,None
"985",985,"Inconel 625","Additive",10.39,3.167,74375.1,None
"986",986,"Inconel 625","Additive",10.35,3.155,74375.2,None
"987",987,"Inconel 625","Additive",11.25,3.429,74363,None
"988",988,"Cobalt Chrome","Unrestricted",12.53,3.753,67990.5,None
"989",989,"Cobalt Chrome","Additive",11.63,3.482,67989.8,None
"990",990,"Cobalt Chrome","Additive",11.45,3.428,67987.3,None
"991",991,"Cobalt Chrome","Additive",12.35,3.698,67978.7,None
"992",992,"Inconel 718 Plus","Unrestricted",10.46,3.232,77023.5,None
"993",993,"Inconel 718 Plus","Additive",9.91,3.061,77037.7,None
"994",994,"Inconel 718 Plus","Additive",10.64,3.287,77025.8,None
"995",995,"Stainless Steel 17-4 PH","Unrestricted",11.74,3.307,69611.3,None
"996",996,"Stainless Steel 17-4 PH","Additive",11.19,3.155,69614.6,None
"997",997,"Stainless Steel 17-4 PH","Additive",11.19,3.153,69617.6,None
"998",998,"Stainless Steel 17-4 PH","Additive",11.79,3.324,69607.3,None
"999",999,"Iron, Cast","3 Axis Milling",15.17,3.92,54966.2,None
"1000",1000,"Iron, Cast","2.5 Axis Milling",14.76,3.813,54996.1,None