"id","OutcomeID","Material","ManufacturingMethod","Volume","Mass","MaxVonMisesStress","cluster"
"1",540,"Inconel 718","5 Axis Milling",10.94,3.196,63970.9,1
"2",325,"Iron, Ductile","Additive",13.75,3.552,58812,1
"3",221,"Iron, Ductile","Additive",10.58,2.733,58809.8,1
"4",483,"Inconel 718","Unrestricted",9.93,2.9,63978.5,1
"5",269,"Inconel 718","Additive",18.79,5.488,55983.2,1
"6",984,"Inconel 625","Unrestricted",10.91,3.325,74374.2,2
"7",85,"Inconel 625","Unrestricted",7.4,2.256,92961.5,2
"8",546,"Inconel 625","Unrestricted",12.82,3.909,53121.2,2
"9",366,"Cobalt Chrome","Unrestricted",10.71,3.207,56645.9,2
"10",462,"Inconel 718 Plus","Unrestricted",15.52,4.795,55027.2,2
"11",243,"Stainless Steel 17-4 PH","Unrestricted",13.28,3.741,43509.4,3
"12",436,"Stainless Steel 17-4 PH","Unrestricted",30.17,8.503,34806.2,3
"13",995,"Stainless Steel 17-4 PH","Unrestricted",11.74,3.307,69611.3,3
"14",831,"Stainless Steel AISI 440C, Welded","Unrestricted",13.92,3.922,48745.2,3
"15",93,"Aluminum AlSi10Mg","Unrestricted",25.49,2.459,34805.6,3
"16",840,"Stainless Steel AISI 440C, Welded","3 Axis Milling",16.88,4.757,48744.5,4
"17",756,"Stainless Steel AISI 440C, Welded","2.5 Axis Milling",16.1,4.537,51246.3,4
"18",211,"Stainless Steel, 440C","2 Axis Cutting",18.38,5.147,49965,4
"19",415,"Titanium 6Al-4V","3 Axis Milling",21.53,3.445,51199.7,4
"20",843,"Stainless Steel AISI 440C, Welded","3 Axis Milling",16.88,4.757,48744.5,4
"21",346,"Inconel 625","Additive",26.82,8.177,30987.2,5
"22",978,"Aluminum 7175 T73 0 Hot Formed","Additive",22.8,2.306,32415.6,5
"23",900,"Iron, Malleable","Additive",26.81,6.926,31131.9,5
"24",902,"Iron, Malleable","Additive",27.44,7.088,31134.2,5
"25",903,"Iron, Malleable","5 Axis Milling",24.21,6.253,31133.2,5
"26",238,"Cobalt Chrome","Additive",17.25,5.167,42494.4,6
"27",572,"Cobalt Chrome","Die Casting",14.73,4.412,48563,6
"28",152,"Cobalt Chrome","Additive",15.1,4.524,42493,6
"29",457,"Cobalt Chrome","Unrestricted",17.78,5.326,48566.9,6
"30",721,"Cobalt Chrome","5 Axis Milling",25.62,7.673,39527.6,6
"31",952,"Inconel 625","Additive",15.28,4.659,41315.9,7
"32",884,"Stainless Steel 17-4 PH","Additive",16.14,4.547,42449.5,7
"33",177,"Stainless Steel 17-4 PH","Additive",19.46,5.485,43506.7,7
"34",196,"Aluminum AlSi10Mg","Additive",21.16,2.041,34806.1,7
"35",727,"Stainless Steel 17-4 PH","Additive",17.3,4.876,40474.9,7
"36",846,"Titanium 6Al-4V","Additive",10.71,1.714,62437.4,8
"37",213,"Titanium 6Al-4V","Unrestricted",9.9,1.585,63993.3,8
"38",384,"Titanium 6Al-4V","Additive",5.56,0.89,127989.6,8
"39",351,"Titanium 6Al-4V","Unrestricted",7.57,1.211,85331.9,8
"40",382,"Titanium 6Al-4V","Additive",5.68,0.909,127994.2,8
"41",463,"Inconel 718 Plus","Additive",15.36,4.745,55013.4,9
"42",155,"Inconel 718 Plus","Additive",12.58,3.886,48149.6,9
"43",43,"Inconel 718 Plus","2 Axis Cutting",44.7,13.807,38518.5,9
"44",835,"Stainless Steel AISI 440C, Welded","Additive",13.78,3.883,48744.8,9
"45",464,"Inconel 718 Plus","Additive",14.85,4.586,55030.3,9
"46",632,"Inconel 625","3 Axis Milling",16.64,5.074,50249.9,10
"47",880,"Cobalt Chrome","3 Axis Milling",32.72,9.799,41455.5,10
"48",956,"Inconel 625","2 Axis Cutting",29.31,8.937,41317.8,10
"49",894,"Stainless Steel 17-4 PH","3 Axis Milling",32.48,9.152,42446.1,10
"50",440,"Stainless Steel 17-4 PH","3 Axis Milling",42.77,12.053,34803.2,10
